initializing Gyro
gyro>mux calibration
Initializing IR
initializing EOPD Down
initializing Ultrasonic
initialzing Light Sensor
MUX> Setting Light On
initializing EOPD Forward
Lift brake off, so setting it on
Lift brake off, so setting it on
LiftStopped
Lift brake off, so setting it on
LiftStopped
Initial US value: 255
DriveToUSValue: dist(cm): 255 targ: 150 > drive dist(ticks): 0  elapsed: 34
DriveToUSValue: dist(cm): 255 targ: 150 > drive dist(ticks): 0  elapsed: 52
DriveToUSValue: dist(cm): 255 targ: 150 > drive dist(ticks): 0  elapsed: 70
DriveToUSValue: dist(cm): 255 targ: 150 > drive dist(ticks): 0  elapsed: 89
DriveToUSValue: dist(cm): 255 targ: 150 > drive dist(ticks): 5  elapsed: 108
DriveToUSValue: dist(cm): 255 targ: 150 > drive dist(ticks): 18  elapsed: 132
DriveToUSValue: dist(cm): 255 targ: 150 > drive dist(ticks): 32  elapsed: 150
DriveToUSValue: dist(cm): 255 targ: 150 > drive dist(ticks): 40  elapsed: 168
DriveToUSValue: dist(cm): 255 targ: 150 > drive dist(ticks): 56  elapsed: 187
DriveToUSValue: dist(cm): 255 targ: 150 > drive dist(ticks): 74  elapsed: 205
DriveToUSValue: dist(cm): 255 targ: 150 > drive dist(ticks): 92  elapsed: 224
DriveToUSValue: dist(cm): 255 targ: 150 > drive dist(ticks): 114  elapsed: 243
DriveToUSValue: dist(cm): 255 targ: 150 > drive dist(ticks): 142  elapsed: 264
DriveToUSValue: dist(cm): 255 targ: 150 > drive dist(ticks): 157  elapsed: 284
DriveToUSValue: dist(cm): 255 targ: 150 > drive dist(ticks): 188  elapsed: 304
DriveToUSValue: dist(cm): 255 targ: 150 > drive dist(ticks): 208  elapsed: 322
DriveToUSValue: dist(cm): 255 targ: 150 > drive dist(ticks): 238  elapsed: 343
DriveToUSValue: dist(cm): 255 targ: 150 > drive dist(ticks): 254  elapsed: 362
DriveToUSValue: dist(cm): 255 targ: 150 > drive dist(ticks): 286  elapsed: 383
DriveToUSValue: dist(cm): 255 targ: 150 > drive dist(ticks): 309  elapsed: 403
DriveToUSValue: dist(cm): 255 targ: 150 > drive dist(ticks): 334  elapsed: 420
DriveToUSValue: dist(cm): 255 targ: 150 > drive dist(ticks): 350  elapsed: 437
DriveToUSValue: dist(cm): 255 targ: 150 > drive dist(ticks): 377  elapsed: 456
DriveToUSValue: dist(cm): 255 targ: 150 > drive dist(ticks): 412  elapsed: 477
DriveToUSValue: dist(cm): 255 targ: 150 > drive dist(ticks): 427  elapsed: 496
DriveToUSValue: dist(cm): 237 targ: 150 > drive dist(ticks): 456  elapsed: 515
DriveToUSValue: dist(cm): 237 targ: 150 > drive dist(ticks): 472  elapsed: 532
DriveToUSValue: dist(cm): 237 targ: 150 > drive dist(ticks): 500  elapsed: 554
DriveToUSValue: dist(cm): 255 targ: 150 > drive dist(ticks): 514  elapsed: 572
DriveToUSValue: dist(cm): 255 targ: 150 > drive dist(ticks): 541  elapsed: 590
DriveToUSValue: dist(cm): 255 targ: 150 > drive dist(ticks): 556  elapsed: 609
DriveToUSValue: dist(cm): 255 targ: 150 > drive dist(ticks): 579  elapsed: 630
DriveToUSValue: dist(cm): 255 targ: 150 > drive dist(ticks): 591  elapsed: 648
DriveToUSValue: dist(cm): 255 targ: 150 > drive dist(ticks): 616  elapsed: 667
DriveToUSValue: dist(cm): 255 targ: 150 > drive dist(ticks): 641  elapsed: 690
DriveToUSValue: dist(cm): 255 targ: 150 > drive dist(ticks): 653  elapsed: 709
DriveToUSValue: dist(cm): 255 targ: 150 > drive dist(ticks): 678  elapsed: 727
DriveToUSValue: dist(cm): 255 targ: 150 > drive dist(ticks): 694  elapsed: 748
DriveToUSValue: dist(cm): 230 targ: 150 > drive dist(ticks): 709  elapsed: 767
DriveToUSValue: dist(cm): 230 targ: 150 > drive dist(ticks): 727  elapsed: 786
DriveToUSValue: dist(cm): 230 targ: 150 > drive dist(ticks): 740  elapsed: 804
DriveToUSValue: dist(cm): 229 targ: 150 > drive dist(ticks): 769  elapsed: 822
DriveToUSValue: dist(cm): 229 targ: 150 > drive dist(ticks): 792  elapsed: 845
DriveToUSValue: dist(cm): 228 targ: 150 > drive dist(ticks): 805  elapsed: 865
DriveToUSValue: dist(cm): 228 targ: 150 > drive dist(ticks): 818  elapsed: 883
DriveToUSValue: dist(cm): 228 targ: 150 > drive dist(ticks): 849  elapsed: 901
DriveToUSValue: dist(cm): 255 targ: 150 > drive dist(ticks): 863  elapsed: 921
DriveToUSValue: dist(cm): 255 targ: 150 > drive dist(ticks): 889  elapsed: 942
DriveToUSValue: dist(cm): 255 targ: 150 > drive dist(ticks): 915  elapsed: 961
DriveToUSValue: dist(cm): 255 targ: 150 > drive dist(ticks): 930  elapsed: 982
DriveToUSValue: dist(cm): 255 targ: 150 > drive dist(ticks): 955  elapsed: 1000
DriveToUSValue: dist(cm): 255 targ: 150 > drive dist(ticks): 969  elapsed: 1019
DriveToUSValue: dist(cm): 255 targ: 150 > drive dist(ticks): 1000  elapsed: 1041
DriveToUSValue: dist(cm): 255 targ: 150 > drive dist(ticks): 1027  elapsed: 1061
DriveToUSValue: dist(cm): 255 targ: 150 > drive dist(ticks): 1043  elapsed: 1080
DriveToUSValue: dist(cm): 255 targ: 150 > drive dist(ticks): 1065  elapsed: 1098
DriveToUSValue: dist(cm): 255 targ: 150 > drive dist(ticks): 1079  elapsed: 1116
DriveToUSValue: dist(cm): 255 targ: 150 > drive dist(ticks): 1107  elapsed: 1137
DriveToUSValue: dist(cm): 255 targ: 150 > drive dist(ticks): 1127  elapsed: 1158
DriveToUSValue: dist(cm): 255 targ: 150 > drive dist(ticks): 1151  elapsed: 1178
DriveToUSValue: dist(cm): 255 targ: 150 > drive dist(ticks): 1176  elapsed: 1197
DriveToUSValue: dist(cm): 255 targ: 150 > drive dist(ticks): 1195  elapsed: 1218
DriveToUSValue: dist(cm): 255 targ: 150 > drive dist(ticks): 1216  elapsed: 1236
DriveToUSValue: dist(cm): 255 targ: 150 > drive dist(ticks): 1235  elapsed: 1258
DriveToUSValue: dist(cm): 255 targ: 150 > drive dist(ticks): 1261  elapsed: 1278
DriveToUSValue: dist(cm): 255 targ: 150 > drive dist(ticks): 1274  elapsed: 1298
DriveToUSValue: dist(cm): 255 targ: 150 > drive dist(ticks): 1295  elapsed: 1319
DriveToUSValue: dist(cm): 255 targ: 150 > drive dist(ticks): 1319  elapsed: 1337
DriveToUSValue: dist(cm): 255 targ: 150 > drive dist(ticks): 1338  elapsed: 1359
DriveToUSValue: dist(cm): 255 targ: 150 > drive dist(ticks): 1360  elapsed: 1377
DriveToUSValue: dist(cm): 255 targ: 150 > drive dist(ticks): 1378  elapsed: 1398
DriveToUSValue: dist(cm): 255 targ: 150 > drive dist(ticks): 1397  elapsed: 1420
D: -1, O: 2
BG arm pos: 0
TURNING LEFT  - Current gyro: 0.00 	Target gyro: -45.00
BG arm pos: 0
TURNING LEFT  - Current gyro: 0.00 	Target gyro: -45.00
BG arm pos: 0
TURNING LEFT  - Current gyro: 0.00 	Target gyro: -45.00
BG arm pos: -1
TURNING LEFT  - Current gyro: 0.02 	Target gyro: -45.00
BG arm pos: -6
TURNING LEFT  - Current gyro: -0.12 	Target gyro: -45.00
BG arm pos: -18
TURNING LEFT  - Current gyro: -0.36 	Target gyro: -45.00
BG arm pos: -23
TURNING LEFT  - Current gyro: -0.58 	Target gyro: -45.00
BG arm pos: -23
TURNING LEFT  - Current gyro: -0.87 	Target gyro: -45.00
BG arm pos: -24
TURNING LEFT  - Current gyro: -1.16 	Target gyro: -45.00
BG arm pos: -26
TURNING LEFT  - Current gyro: -1.47 	Target gyro: -45.00
BG arm pos: -29
TURNING LEFT  - Current gyro: -1.80 	Target gyro: -45.00
BG arm pos: -34
TURNING LEFT  - Current gyro: -2.18 	Target gyro: -45.00
BG arm pos: -39
TURNING LEFT  - Current gyro: -2.60 	Target gyro: -45.00
BG arm pos: -43
TURNING LEFT  - Current gyro: -3.05 	Target gyro: -45.00
BG arm pos: -50
TURNING LEFT  - Current gyro: -3.53 	Target gyro: -45.00
BG arm pos: -56
TURNING LEFT  - Current gyro: -3.97 	Target gyro: -45.00
BG arm pos: -68
TURNING LEFT  - Current gyro: -4.48 	Target gyro: -45.00
BG arm pos: -82
TURNING LEFT  - Current gyro: -5.08 	Target gyro: -45.00
BG arm pos: -90
TURNING LEFT  - Current gyro: -5.82 	Target gyro: -45.00
BG arm pos: -106
TURNING LEFT  - Current gyro: -6.41 	Tgyro: -6.92 	Target gyro: -45.00
BG arm pos: -128
TURNING LEFT  - Current gyro: -7.46 	Target gyro: -45.00
BG arm pos: -159
TURNING LEFT  - Current gyro: -7.96 	Target gyro: -45.00
BG arm pos: -174
TURNING LEFT  - Current gyro: -8.63 	Target gyro: -45.00
BG arm pos: -199
TURNING LEFT  - Current gyro: -9.36 	Target gyro: -45.00
BG arm pos: -214
TURNING LEFT  - Current gyro: -10.08 	Target gyro: -45.00
BG arm pos: -244
TURNING LEFT  - Current gyro: -10.73 	Target gyro: -45.00
BG arm pos: -274
TURNING LEFT  - Current gyro: -11.48 	Target gyro: -45.00
BG arm pos: -290
TURNING LEFT  - Current gyro: -12.09 	Target gyro: -45.00
BG arm pos: -335
TURNING LEFT  - Current gyro: -12.73 	Target gyro: -45.00
BG arm pos: -358
TURNING LEFT  - Current gyro: -13.26 	Target gyro: -45.00
BG arm pos: -380
TURNING LEFT  - Current gyro: -13.82 	Target gyro: -45.00
BG arm pos: -410
TURNING LEFT  - Current gyro: -14.23 	Target gyro: -45.00
BG arm pos: -423
TURNING LEFT  - Current gyro: -14.82 	Target gyro: -45.00
BG arm pos: -464
TURNING LEFT  - Current gyro: -15.40 	Target gyro: -45.00
TURNING LEFT  - Current gyro: -15.97 	Target gyro: -45.00
TURNING LEFT  - Current gyro: -16.54 	Target gyro: -45.00
TURNING LEFT  - Current gyro: -16.99 	Target gyro: -45.00
TURNING LEFT  - Current gyro: -17.55 	Target gyro: -45.00
TURNING LEFT  - Current gyro: -18.06 	Target gyro: -45.00
TURNING LEFT  - Current gyro: -18.86 	Target gyro: -45.00
TURNING LEFT  - Current gyro: -19.64 	Target gyro: -45.00
TURNING LEFT  - Current gyro: -20.38 	Target gyro: -45.00
TURNING LEFT  - Current gyro: -20.97 	Target gyro: -45.00
TURNING LEFT  - Current gyro: -21.53 	Target gyro: -45.00
TURNING LEFT  - Current gyro: -22.03 	Target gyro: -45.00
TURNING LEFT  - Current gyro: -22.52 	Target gyro: -45.00
TURNING LEFT  - Current gyro: -23.13 	Target gyro: -45.00
TURNING LEFT  - Current gyro: -23.72 	Target gyro: -45.00
TURNING LEFT  - Current gyro: -24.44 	Target gyro: -45.00
TURNING LEFT  - Current gyro: -25.15 	Target gyro: -45.00
TURNING LEFT  - Current gyro: -25.84 	Target gyro: -45.00
TURNING LEFT  - Current gyro: -26.48 	Target gyro: -45.00
TURNING LEFT  - Current gyro: -26.99 	Target gyro: -45.00
TURNING LEFT  - Current gyro: -27.54 	Target gyro: -45.00
TURNING LEFT  - Current gyro: -28.06 	Target gyro: -45.00
TURNING LEFT  - Current gyro: -28.73 	Target gyro: -45.00
TURNING LEFT  - Current gyro: -29.34 	Target gyro: -45.00
TURNING LEFT  - Current gyro: -30.10 	Target gyro: -45.00
TURNING LEFT  - Current gyro: -30.80 	Target gyro: -45.00
TURNING LEFT  - Current gyro: -31.43 	Target gyro: -45.00
TURNING LEFT  - Current gyro: -32.06 	Target gyro: -45.00
TURNING LEFT  - Current gyro: -32.69 	Target gyro: -45.00
TURNING LEFT  - Current gyro: -33.20 	Target gyro: -45.00
TURNING LEFT  - Current gyro: -33.62 	Target gyro: -45.00
TURNING LEFT  - Current gyro: -34.09 	Target gyro: -45.00
TURNING LEFT  - Current gyro: -34.66 	Target gyro: -45.00
TURNING LEFT  - Current gyro: -35.20 	Target gyro: -45.00
TURNING LEFT  - Current gyro: -35.64 	Target gyro: -45.00
TURNING LEFT  - Current gyro: -36.15 	Target gyro: -45.00
TURNING LEFT  - Current gyro: -36.70 	Target gyro: -45.00
TURNING LEFT  - Current gyro: -37.28 	Target gyro: -45.00
TURNING LEFT  - Current gyro: -37.82 	Target gyro: -45.00
TURNING LEFT  - Current gyro: -38.56 	Target gyro: -45.00
TURNING LEFT  - Current gyro: -39.13 	Target gyro: -45.00
TURNING LEFT  - Current gyro: -39.76 	Target gyro: -45.00
TURNING LEFT  - Current gyro: -40.36 	Target gyro: -45.00
TURNING LEFT  - Current gyro: -40.87 	Target gyro: -45.00
TURNING LEFT  - Current gyro: -41.35 	Target gyro: -45.00
TURNING LEFT  - Current gyro: -41.83 	Target gyro: -45.00
TURNING LEFT  - Current gyro: -42.40 	Target gyro: -45.00
TURNING LEFT  - Current gyro: -43.10 	Target gyro: -45.00
TURNING LEFT  - Current gyro: -43.89 	Target gyro: -45.00
TURNING LEFT  - Current gyro: -44.57 	Target gyro: -45.00
TURNING LEFT  - Current gyro: -45.24 	Target gyro: -45.00
Stopping DriveTrain
Initial IR value: -2147483648
Current IR value: 5	Target IR value: 9
Current IR value: 5	Target IR value: 9
Current IR value: 5	Target IR value: 9
Current IR value: 5	Target IR value: 9
Current IR value: 5	Target IR value: 9
Current IR value: 5	Target IR value: 9
Current IR value: 5	Target IR value: 9
Current IR value: 5	Target IR value: 9
Current IR value: 5	Target IR value: 9
Current IR value: 5	Target IR value: 9
Current IR value: 6	Target IR value: 9
Current IR value: 7	Target IR value: 9
Current IR value: 7	Target IR value: 9
Current IR value: 7	Target 7	Target IR value: 9
Current IR value: 7	Target IR value: 9
Current IR value: 7	Target IR value: 9
Current IR value: 7	Target IR value: 9
Lift brake off, so setting it on
LiftStopped
Current IR value: 7	Target IR value: 9
Lift brake off, so setting it on
LiftStopped
Lift brake off, so setting it on
LiftStopped
Current IR value: 7	Target IR value: alue: 7	Target IR value: 9
Lift brake off, so setting it on
LiftStopped
Lift brake off, so setting it on
LiftStopped
Current IR value: 7	Target IR value: 9
Lift brake off, so setting it on
LiftStopped
Lift brake off, so setting it on
LiftStopped
Current IR value: 7	Target IR value: 9
Lift brake off, so setting it on
LiftStopped
Lift brake off, so spped
Current IR value: 7	Target IR value: 9
Lift brake off, so setting it on
LiftStopped
Lift brake off, so setting it on
LiftStopped
Current IR value: 7	Target IR value: 9
Lift brake off, so setting it on
LiftStopped
Lift brake off, so setting it on
LiftStopped
Current IR value: 7	Target IR value: 9
Lift brake off, so setting it on
LiftStopped
Lif, so setting it on
LiftStopped
Current IR value: 7	Target IR value: 9
Lift brake off, so setting it on
LiftStopped
Lift brake off, so setting it on
LiftStopped
Current IR value: 7	Target IR value: 9
Lift brake off, so setting it on
LiftStopped
Lift brake off, so setting it on
LiftStopped
Current IR value: 7	Target IR value: 9
Lift brake off, so seto setting it on
LiftStopped
Lift brake off, so setting it on
LiftStopped
Current IR value: 7	Target IR value: 9
Lift brake off, so setting it on
LiftStopped
Lift brake off, so setting it on
LiftStopped
Current IR value: 7	Target IR value: 9
Lift brake off, so setting it on
LiftStopped
Lift brake off, so setting it on
LiftStopped
Current IR value: 7, so setting it on
LiftStopped
Lift brake off, so setting it on
LiftStopped
Current IR value: 7	Target IR value: 9
Lift brake off, so setting it on
LiftStopped
Lift brake off, so setting it on
LiftStopped
Current IR value: 7	Target IR value: 9
Lift brake off, so setting it on
LiftStopped
Lift brake off, so setting it on
LiftStopped
Current IR valueLiftStopped
Lift brake off, so setting it on
LiftStopped
Current IR value: 6	Target IR value: 9
Lift brake off, so setting it on
LiftStopped
Lift brake off, so setting it on
LiftStopped
Current IR value: 6	Target IR value: 9
Lift brake off, so setting it on
LiftStopped
Lift brake off, so setting it on
LiftStopped
Current IR value: 8	Target IR value setting it on
LiftStopped
Current IR value: 8	Target IR value: 9
Lift brake off, so setting it on
LiftStopped
Lift brake off, so setting it on
LiftStopped
Current ped
Lift brake off, so setting it on
LiftStopped
DriveTped
Lift brake off, so setting it on
LiftStopped
DriveTask> turning right: target Deg: 93.0 curDeg: 19.3  diff: 73.7
Lift brake off, so setting it on
LiftStopped
Lift brake off, so setting it on
LiftStopped
DriveTask> turning right: target Deg: 93.0 curDeg: 21.2  diff: 71.8
Lift brake off, so setting it on
LiftStopped
Lift brake off, so setting it ped
Lift brake off, so setting it on
LiftStopped
DriveTask> turning right: target Deg: 93.0 curDeg: 29.2  diff: 63.8
Lift brake off, so setting it on
LiftStopped
Lift brake off, so setting it on
LiftStopped
DriveTask> turning right: target Deg: 93.0 curDeg: 31.4  diff: 61.6
Lift brake off, so setting it on
LiftStopped
Lift brake off, so setting it ped
Lift brake off, so setting it on
LiftStopped
DriveTask> turning right: target Deg: 93.0 curDeg: 36.4  diff: 56.6
Lift brake off, so setting it on
LiftStopped
Lift brake off, so setting it on
LiftStopped
DriveTask> turning right: target Deg: 93.0 curDeg: 38.8  diff: 54.2
Lift brake off, so setting it on
LiftStopped
Lift brake off, so setting it on
LiftStopped
DriveTask> turning right: target Deg: 93.0 curDeg: 41.6  diff: 51.4
Lift brake off, so setting it on
LiftStopped
Lift brake off, so setting it on
LiftStopped
DriveTask> turning right: target Deg: 93.0 curDeg: 44.1  diff: 48.9
Lift brake off, so setting it on
LiftStopped
Lift brake off, so setting it on
LiftStopped
DriveTask> turning iftStopped
Lift brake off, so setting it on
LiftStopped
DriveTask> turning right: target Deg: 93.0 curDeg: 54.3  diff: 38.7
Lift brake off, so setting it on
LiftStopped
Lift brake off, so setting it on
LiftStopped
DriveTask> turning right: target Deg: 93.0 curDeg: 57.4  diff: 35.6
Lift brake off, so setting it on
LiftStopped
Lift brake off, so sett on
LiftStopped
Lift brake off, so setting it on
LiftStopped
DriveTask> turning right: target Deg: 93.0 curDeg: 67.3  diff: 25.7
Lift brake off, so setting it on
LiftStopped
Lift brake off, so setting it on
LiftStopped
DriveTask> turning right: target Deg: 93.0 curDeg: 69.7  diff: 23.3
Lift brake off, so setting it on
LiftStopped
Lift brake off, soveTask> turning right: target Deg: 93.0 curDeg: 75.2  diff: 17.8
Lift brake off, so setting it on
LiftStopped
Lift brake off, so setting it on
LiftStopped
DriveTask> turning right: target Deg: 93.0 curDeg: 77.5  diff: 15.5
Lift brake off, so setting it on
LiftStopped
Lift brake off, so setting it on
LiftStopped
DriveTask> turning right: target Deg:ing it on
LiftStopped
Lift brake off, so setting it on
LiftStopped
DriveTask> turning right: target Deg: 93.0 curDeg: 80.3  diff: 12.7
Lift brake off, so setting it on
LiftStopped
Lift brake off, so setting it on
LiftStopped
DriveTask> turning right: target Deg: 93.0 curDeg: 81.2  diff: 11.8
Lift brake off, so setting it on
LiftStopped
Lift brake off, so setting it on
LiftStopped
DriveTask> turning right: target Deg: 93.0 curDeg: 81.9  diff: 11.1
Lift brake off, so setting it on
LiftStopped
Lift brake off, so setting it on
LiftStopped
DriveTask> turning right: target Deg: 93.0 curDeg: 82.4  diff: 10.6
Lift brake off, so setting it on
LiftStopped
Lift brake off, so setting it on
LiftStopped
DriveTask> turning right: target Deg: 93.0 curDeg: 82.7  diff: 10.3
Lift brake off, so setting it on
LiftStopped
Lift brake off, so setting it on
LiftStopped
DriveTask> turning right: target Deg: 93.0 curDeg: 82.9  diff: 10.1
Lift brake off, so setting it on
LiftStopped
Lift brake off, so setting it on
LiftStopped
DriveTask> turning right: target Deg: 93.0 curDeg: 83.0  diff: 10.0
Lift brake off, so setting it on
LiftStopped
Lift brake off, so setting it on
LiftStopped
DriveTask> turning right: target Deg: 93.0 curDeg: 83.1  diff: 9.9
Lift brake off, so setting it on
LiftStopped
Lift brake off, so setting it on
LiftStopped
DriveTask> turning right: target Deg: 93.0 curDeg: 83.2  diff: 9.8
Lift brake off, so setting it on
LiftStopped
Lift brake off, so setting it on
LiftStopped
DriveTarake off, so setting it on
LiftStopped
DriveTask> turning right: target Deg: 93.0 curDeg: 84.0  diff: 9.0
Lift brake off, so setting it on
LiftStopped
Lift brake off, so setting it on
LiftStopped
DriveTask> turning right: target Deg: 93.0 curDeg: 84.2  diff: 8.8
Lift brake off, so setting it on
LiftStopped
Lift brake off, so setting it on
LiftStopped
DriveTask> turning right: target Deg: 93.0 curDeg: 84.6  diff: 8.4
Lift brake off, so setting it on
LiftStopped
Lift brake off, so setting it on
LiftStopped
DriveTask> turning right: target Deg: 93.0 curDeg: 85.0  diff: 8.0
Lift brake off, so setting it on
LiftStopped
Lift brake off, so setting it on
LiftStopped
DriveTask> turning right: target Deg: 93.0 curDeg: 85.3  diff: 7.7
Lift brake off, so setting it on
LiftStopped
Lift brake off, so setting it on
LiftStopped
DriveTask> turning right: target Deg: 93.0 curDeg: 85.8  diff: 7.2
Lift brake off, so setting it on
LiftStopped
Lift brake off, so setting it on
LiftStopped
DriveTask> turning right: target Deg: 93.0 curDeg: 86.3  diff: 6.7
Lift brake off, so setting it on
LiftStopped
Lift brake off, so setting it on
LiftStopped
DriveTask> turning right: target Deg: 93.0 curDeg: 86.7  diff: 6.3
Lift brake off, so setting it on
LiftStopped
Lift brake off, so setting it on
LiftStopped
DriveTask> turning right: target Deg: 93.0 curDeg: 87.3  diff: 5.7
Lift brake off, so setting it on
LiftStopped
Lift brake off, so setting it on
LiftStopped
DriveTask> turning right: target Deg: 93.0 curDeg: 87.8  diff: 5.2
Lift brake off, so setting it on
LiftStopped
Lift brake off, so setting it on
LiftStopped
DriveTask> turning right: target Deg: 93.0 curDeg: 88.2  diff: 4.8
Lift brake off, so setting it on
LiftStopped
Lift brake off, so setting it on
LiftStopped
DriveTask> turning right: target Deg: 93.0 curDeg: 88.8  diff: 4.2
Lift brake off, so setting it on
LiftStopped
Lift brake off, so setting it on
LiftStopped
DriveTask> turning right: target Deg: 93.0 curDeg: 89.2  diff: 3.8
Lift brake off, so setting it on
LiftStopped
Lift brake off, so setting it on
LiftStopped
DriveTask> turning right: target Deg: 93.0 curDeg: 89.7  diff: 3.3
Lift brake off, so setting it on
LiftStopped
Lift brake off, so setting it on
LiftStopped
DriveTask> turning right: target Deg: 93.0 curDeg: 90.1  diff: 2.9
Lift brake off, so setting it on
LiftStopped
Lift brake off, so setting it on
LiftStopped
DriveTask> turning right: target Deg: 93.0 curDeg: 90.6  diff: 2.4
Lift brake off, so setting it on
LiftStopped
Lift brake off, so setting it on
LiftStopped
DriveTask> turning right: target Deg: 93.0 curDeg: 91.1  diff: 1.9
Lift brake off, so setting it on
LiftStopped
Lift brake off, so setting it on
LiftStopped
DriveTask> turning right: target Deg: 93.0 curDeg: 91.5  diff: 1.5
Lift brake off, so setting it on
LiftStopped
Lift brake off, so setting it on
LiftStopped
DriveTask> turning right: target Deg: 93.0 curDeg: 91.9  diff: 1.1
Lift brake off, so setting it on
LiftStopped
Lift brake off, so setting it on
LiftStopped
DriveTask> turning right: target Deg: 93.0 curDeg: 92.4  diff: 0.6
Lift brake off, so setting it on
LiftStopped
Lift brake off, so setting it on
LiftStopped
DriveTask> turning right: target Deg: 93.0 curDeg: 92.8  diff: 0.2
Lift brake off, so setting it on
LiftStopped
Lift brake off, so setting it on
LiftStopped
DriveTask> turning right: target Deg: 93.0 curDeg: 93.2  diff: -0.2
Stopping DriveTrain
Lift brake off, so setting it on
LiftStopped
Lift brake off, so setting it on
LiftStopped
Lift brake off, so setting it on
LiftStopped
Lift brake off, so setting it on
LiftStopped
UltraDrive: dist(cm): 18  drivetrain dist(ticks): -1  elapsed: 49
EOPD starting distance: 0.63 okay, proceed
Lift brake off, so setting it on
LiftStopped
Lift brake off, so setting it on
LiftStopped
EOPDDrive: dist: 0.59  drivetrain dist(ticks): 2  timer: 16817
Stopping DriveTrain
Done Driving. Lift is stopped, we are done
Stopping DriveTrain
BallScorerMasterTubeToGoal Starting. LiftState: 4
TubeToGoal> tube is deployed, time to tip
TippingTube120cm
TubeTask> tube return is deployed> Pos: 3059
BallScorerTubeToGoal> Balls in Goal!
TubeToStowStarting
MoveTube>Stowing Tube: starting encoder value: 3059
Stopping DriveTrain
TubeStowedArmDeployed> DONE
Lowering Lift to 90cm
Center goal to Kickstand
Knocking out kickstand
Turning Right: 45.0 degrees  leftPower: 80  rightPower: -80
DriveTask> turning right: target Deg: 45.0 curDeg: 0.0  diff: 45.0
DriveTask> turning right: target Deg: 45.0 curDeg: 0.0  diff: 45.0
DriveTask> turning right: target Deg: 45.0 curDeg: 0.0  diff: 45.0
DriveTask> turning right: target Deg: 45.0 curDeg: 0.2  diff: 44.8
DriveTask> turning right: target Deg: 45.0 curDeg: 0.8  diff: 44.2
DriveTask> turning right: target Deg: 45.0 curDeg: 1.8  diff: 43.2
DriveTask> turning right: target Deg: 45.0 curDeg: 2.8  diff: 42.2
DriveTask> turning right: target Deg: 45.0 curDeg: 4.0  diff: 41.0
DriveTask> turning right: target Deg: 45.0 curDeg: 5.2  diff: 39.8
DriveTask> turning right: target Deg: 45.0 curDeg: 6.7  diff: 38.3
DriveTask> turning right: target Deg: 45.0 curDeg: 8.3  diff: 36.7
DriveTask> turning right: target Deg: 45.0 curDeg: 9.8  diff: 35.2
DriveTask> turning right: target Deg: 45.0 curDeg: 11.7  diff: 33.3
DriveTask> turning right: target Deg: 45.0 curDeg: 13.7  diff: 31.3
DriveTask> turning right: target Deg: 45.0 curDeg: 16.1  diff: 28.9
DriveTask> turning right: target Deg: 45.0 curDeg: 18.1  diff: 26.9
DriveTask> turning right: target Deg: 45.0 curDeg: 20.1  diff: 24.9
DriveTask> turning right: target Deg: 45.0 curDeg: 22.7  diff: 22.3
DriveTask> turning right: target Deg: 45.0 curDeg: 25.4  diff: 19.6
DriveTask> turning right: target Deg: 45.0 curDeg: 27.8  diff: 17.2
DriveTask> turning right: target Deg: 45.0 curDeg: 29.6  diff: 15.4
DriveTask> turning right: target Deg: 45.0 curDeg: 31.2  diff: 13.8
DriveTask> turning right: target Deg: 45.0 curDeg: 32.5  diff: 12.5
DriveTask> turning right: target Deg: 45.0 curDeg: 33.6  diff: 11.4
DriveTask> turning right: target Deg: 45.0 curDeg: 34.5  diff: 10.5
DriveTask> turning right: target Deg: 45.0 curDeg: 35.1  diff: 9.9
DriveTask> turning right: target Deg: 45.0 curDeg: 35.6  diff: 9.4
DriveTask> turning right: target Deg: 45.0 curDeg: 35.9  diff: 9.1
DriveTask> turning right: target Deg: 45.0 curDeg: 36.2  diff: 8.8
DriveTask> turning right: target Deg: 45.0 curDeg: 36.6  diff: 8.4
DriveTask> turning right: target Deg: 45.0 curDeg: 36.8  diff: 8.2
DriveTask> turning right: target Deg: 45.0 curDeg: 37.0  diff: 8.0
DriveTask> turning right: target Deg: 45.0 curDeg: 37.2  diff: 7.8
DriveTask> turning right: target Deg: 45.0 curDeg: 37.4  diff: 7.6
DriveTask> turning right: target Deg: 45.0 curDeg: 37.7  diff: 7.3
DriveTask> turning right: target Deg: 45.0 curDeg: 37.9  diff: 7.1
DriveTask> turning right: target Deg: 45.0 curDeg: 38.3  diff: 6.7
DriveTask> turning right: target Deg: 45.0 curDeg: 38.7  diff: 6.3
DriveTask> turning right: target Deg: 45.0 curDeg: 39.1  diff: 5.9
DriveTask> turning right: target Deg: 45.0 curDeg: 39.5  diff: 5.5
DriveTask> turning right: target Deg: 45.0 curDeg: 39.9  diff: 5.1
DriveTask> turning right: target Deg: 45.0 curDeg: 40.3  diff: 4.7
DriveTask> turning right: target Deg: 45.0 curDeg: 40.8  diff: 4.2
DriveTask> turning right: target Deg: 45.0 curDeg: 41.3  diff: 3.7
DriveTask> turning right: target Deg: 45.0 curDeg: 41.6  diff: 3.4
DriveTask> turning right: target Deg: 45.0 curDeg: 42.0  diff: 3.0
DriveTask> turning right: target Deg: 45.0 curDeg: 42.4  diff: 2.6
DriveTask> turning right: target Deg: 45.0 curDeg: 42.8  diff: 2.2
DriveTask> turning right: target Deg: 45.0 curDeg: 43.3  diff: 1.7
DriveTask> turning right: target Deg: 45.0 curDeg: 43.8  diff: 1.2
Lift brake off, so setting it on
LiftStopped
DriveTask> turning right: target Deg: 45.0 curDeg: 44.2  diff: 0.8
Lift brake off, so setting it on
LiftStopped
Lift brake off, so setting it on
LiftStopped
DriveTask> turning right: target Deg: 45.0 curDeg: 44.8  diff: 0.2
Lift brake off, so setting it on
LiftStopped
Lift brake off, so setting it on
LiftStopped
DriveTask> turning right: target Deg: 45.0 curDeg: 45.2  diff: -0.2
Stopping DriveTrain
Lift brake off, so setting it on
LiftStopped
Lift brake off, so setting it on
LiftStopped
Lift brake off, so setting it on
LiftStopped
Lift brake off, so setting it on
LiftStopped
Lift brake off, so setting it on
LiftStopped
Lift brake off, so setting it on
LiftStopped
Lift brake off, so setting it on
LiftStopped
Lift brake off, so setting it on
LiftStopped
Lift brake off, so setting it on
LiftStopped
Lift brake off, so setting it on
LiftStopped
Lift brake off, so setting it on
LiftStopped
Lift brake off, so setting it on
LiftStopped
Lift brake off, so setting it on
LiftStopped
Lift brake off, so setting it on
LiftStopped
Lift brake off, so setting it on
LiftStopped
Lift brake off, so setting it on
LiftStopped
Lift brake off, so setting it on
LiftStopped
Lift brake off, so setting it on
LiftStopped
Lift brake off, so setting it on
LiftStopped
Lift brake off, so setting it on
LiftStopped
Lift brake off, so setting it on
LiftStopped
Lift brake off, so setting it on
LiftStopped
Lift brake off, so setting it on
LiftStopped
Lift brake off, so setting it on
LiftStopped
Lift brake off, so setting it on
LiftStopped
Lift brake off, so setting it on
LiftStopped
Lift brake off, so setting it on
LiftStopped
Lift brake off, so setting it on
LiftStopped
Lift brake off, so setting it on
LiftStopped
Lift brake off, so setting it on
LiftStopped
Lift brake off, so setting it on
LiftStopped
Lift brake off, so setting it on
LiftStopped
Lift brake off, so setting it on
LiftStopped
Lift brake off, so setting it on
LiftStopped
Lift brake off, so setting it on
LiftStopped
Lift brake off, so setting it on
LiftStopped
Lift brake off, so setting it on
LiftStopped
Lift brake off, so setting it on
LiftStopped
Lift brake off, so setting it on
LiftStopped
Lift brake off, so setting it on
LiftStopped
Lift brake off, so setting it on
LiftStopped
Lift brake off, so setting it on
LiftStopped
Lift brake off, so setting it on
LiftStopped
Lift brake off, so setting it on
LiftStopped
Lift brake off, so setting it on
LiftStopped
Lift brake off, so setting it on
LiftStopped
Lift brake off, so setting it on
LiftStopped
Lift brake off, so setting it on
LiftStopped
Lift brake off, so setting it on
LiftStopped
Lift brake off, so setting it on
LiftStopped
Lift brake off, so setting it on
LiftStopped
Lift brake off, so setting it on
LiftStopped
Lift brake off, so setting it on
LiftStopped
Lift brake off, so setting it on
LiftStopped
Lift brake off, so setting it on
LiftStopped
Lift brake off, so setting it on
LiftStopped
Lift brake off, so setting it on
LiftStopped
Lift brake off, so setting it on
LiftStopped
Lift brake off, so setting it on
LiftStopped
Lift brake off, so setting it on
LiftStopped
rake off, so setting it on
LiftStopped
Lift brake off, rake off, so setting it on
LiftStopped
Lift brake off, so setting it on
LiftStopped
Lift brake off, so setting it on
LiftStopped
Lift brake off, so setting it on
LiftStopped
Lift brake off, so setting it on
LiftStopped
Lift brake off, so setting it on
LiftStopped
Lift brake off, so setting it on
LiftStopped
Lift brake off, so setting it on
LiftStopped
Lift brake off, so setting it on
LiftStopped
Lift brake off, so setting it on
LiftStopped
Lift brake off, so setting it on
LiftStopped
Lift brake off, so setting it on
LiftStopped
Lift brake off, so setting it on
LiftStopped
Lift brake off, so setting it on
LiftStopped
Lift brake off, so setting it on
LiftStopped
Lift brake off, so setting it on
LiftStopped
Lift brake off, so setting it on
LiftStopped
Lift brake off, so setting it on
LiftStopped
Lift brake off, so setting it on
LiftStopped
Lift brake off, so setting it on
LiftStopped
Lift brake off, so setting it on
LiftStopped
Lift brake off, so setting it on
LiftStopped
Lift brake off, so setting it on
LiftStopped
Lift brake off, so setting it on
LiftStopped
Lift brake off, so setting it on
LiftStopped
Lift brake off, so setting it on
LiftStopped
Lift brake off, so setting it on
LiftStopped
Lift brake off, so setting it on
LiftStopped
Lift brake off, so setting it on
LiftStopped
Lift brake off, so setting it on
LiftStopped
Lift brake off, so setting it on
LiftStopped
Lift brake off, so setting it on
LiftStopped
Lift brake off, so setting it on
LiftStopped
Lift brake off, so setting it on
LiftStopped
Lift brake off, so setting it on
LiftStopped
Lift brake off, so setting it on
LiftStopped
Lift brake off, so setting it on
LiftStopped
Lift brake off, so setting it on
LiftStopped
Lift brake off, so setting it on
LiftStopped
Lift brake off, so setting it on
LiftStopped
Lift brake off, so setting it on
LiftStopped
Lift brake off, so setting it on
LiftStopped
Lift brake off, so setting it on
LiftStopped
Lift brake off, so setting it on
LiftStopped
Lift brake off, so setting it on
LiftStopped
Lift brake off, so setting it on
LiftStopped
Lift brake off, so setting it on
LiftStopped
Lift brake off, so setting it on
LiftStopped
Lift brake off, so setting it on
LiftStopped
Lift brake off, so setting it on
LiftStopped
Lift brake off, so setting it on
LiftStopped
Lift brake off, so setting it on
LiftStopped
Lift brake off, so setting it on
LiftStopped
Lift brake off, so setting it on
LiftStopped
Lift brake off, so setting it on
LiftStopped
Lift brake off, so setting it on
LiftStopped
Lift brake off, so setting it on
LiftStopped
Lift brake off, so setting it on
LiftStopped
Lift brake off, so setting it on
LiftStopped
Lift brake off, so setting it on
LiftStopped
Lift brake off, so setting it on
LiftStopped
Lift brake off, so setting it on
LiftStopped
Lift brake off, so setting it on
LiftStopped
Lift brake off, so setting it on
LiftStopped
Lift brake off, so setting it on
LiftStopped
Lift brake off, so setting it on
LiftStopped
Lift brake off, so setting it on
LiftStopped
Lift brake off, so setting it on
LiftStopped
Lift brake off, so setting it on
LiftStopped
Lift brake off, so setting it on
LiftStopped
Lift bped
Lift brake off, so setting it on
LiftStopped
Lift brake off, so setting it on
LiftStopped
Lift brake off, so setting it on
LiftStopped
Lift brake off, so setting it on
LiftStopped
Lift brake off, so setting it on
LiftStopped
Lift brake off, so setting it on
LiftStopped
Lift brake off, so setting it on
LiftStopped
Lift brake off, so setting it on
LiftStopped
Lift brake off, so setting it on
LiftStopped
Lift brake off, so setting it on
LiftStopped
Lift brake off, so setting it on
LiftStopped
Lift brake off, so setting it on
LiftStopped
Lift brake off, so setting it on
LiftStopped
Lift brake off, so setting it on
LiftStopped
Lift brake off, so setting it on
LiftStopped
Lift brake off, so setting it on
LiftStopped
Lift brake off, so setting it on
LiftStopped
Lift brake off, so settinped
Lift brake off, so setting it on
LiftStopped
Lift bped
Lift brake off, so setting it on
LiftStopped
Lift brake off, so setting it on
LiftStopped
Lift brake off, so setting it on
LiftStopped
Lift brake off, so setting it on
LiftStopped
Lift brake off, so setting it on
LiftStopped
Lift brake off, so setting it on
LiftStopped
Lift brake off, so setting it on
LiftStopped
Lift brake off, so setting it on
LiftStopped
Lift brake off, so setting it on
LiftStopped
Lift brake off, so setting it on
LiftStopped
Lift brake off, so setting it on
LiftStopped
Lift brake off, so setting it on
LiftStopped
Lift brake off, so setting it on
LiftStopped
Lift brake off, so setting it on
LiftStopped
Lift brake off, so setting it on
LiftStopped
Stopping DriveTrain
Lift brake off, so setting it on
LiftStopped
Lift brake off, so setting it on
LiftStopped
Turning Left: -45.0 degrees  leftPower: -80  rightPower: 80
Lift brake off, so setting it on
LiftStopped
Lift brake off, so setting it on
LiftStopped
Lift brake off, so setting it on
LiftStopped
Lift brake off, so setting it on
LiftStopped
Lift brake off, so setting it on
LiftStopped
Lift brake off, so setting it on
LiftStopped
Lift brake off, so setting it on
LiftStopped
Lift brake off, so setting it on
LiftStopped
Lift brake off, so setting it on
LiftStopped
Lift brake off, so setting it on
LiftStopped
Lift brake off, so setting it on
LiftStopped
Lift brake off, so setting it on
LiftStopped
Lift brake off, so setting it on
LiftStopped
Lift brake off, so setting it on
LiftStopped
Lift brake off, so setting it on
LiftStopped
Lift brake off, so setting it on
LiftStopped
Lift brake off, so setting it on
LiftStopped
Lift brake off, so setting it on
LiftStopped
Lift brake off, so setting it on
LiftStopped
Lift brake off, so setting it on
LiftStopped
Lift brake off, so setting it on
LiftStopped
Lift brake off, so setting it on
LiftStopped
Lift brake off, so setting it on
LiftStopped
Lift brake off, so setting it on
LiftStopped
Lift brake off, so setting it on
LiftStopped
Lift brake off, so setting it on
LiftStopped
Lift brake off, so setting it on
LiftStopped
Lift brake off, so setting it on
LiftStopped
Lift brake off, so setting it on
LiftStopped
Lift brake off, so setting it on
LiftStopped
Lift brake off, so setting it on
LiftStopped
Lift brake off, so setting it on
LiftStopped
Lift brake off, so setting it on
LiftStopped
Lift brake off, so setting it on
LiftStopped
Lift brake off, so setting it on
LiftStopped
Lift brake off, so setting it on
LiftStopped
Lift brake off, so setting it on
LiftStopped
Lift brake off, so setting it on
LiftStopped
Lift brake off, so setting it on
LiftStopped
Lift brake off, so setting it on
LiftStopped
Lift brake off, so setting it on
LiftStopped
Lift brake off, so setting it on
LiftStopped
Lift brake off, so setting it on
LiftStopped
Lift brake off, so setting it on
LiftStopped
Lift brake off, so setting it on
LiftStopped
Lift brake off, so setting it on
LiftStopped
Lift brake off, so setting it on
LiftStopped
Lift brake off, so setting it on
LiftStopped
Lift brake off, so setting it on
LiftStopped
Lift brake off, so setting it on
LiftStopped
Lift brake off, so setting it on
LiftStopped
Lift brake off, so setting it on
LiftStopped
Lift brake off, so setting it on
LiftStopped
Lift brake off, so setting it on
LiftStopped
Lift brake off, so setting it on
LiftStopped
Lift brake off, so setting it on
LiftStopped
Lift brake off, so setting it on
LiftStopped
Lift brake off, so setting it on
LiftStopped
Lift brake off, so setting it on
LiftStopped
Lift brake off, so setting it on
LiftStopped
Lift brake off, so setting it on
LiftStopped
Lift brake off, so setting it on
LiftStopped
Lift brake off, so setting it on
LiftStopped
Lift brake off, so setting it on
LiftStopped
Lift brake off, so setting it on
LiftStopped
Lift brake off, so setting it on
LiftStopped
Lift brake off, so setting it on
LiftStopped
Lift brake off, so setting it on
LiftStopped
Lift brake off, so setting it on
Lift brake off, so setting it on
LiftStopped
Lift brake oft brake off, so setting it on
LiftStopped
Lift brake off, so setting it on
LiftStopped
Lift brake off, so setting it on
LiftStopped
Lift brake off, so setting it on
LiftStopped
Stopping DriveTrain
Lift brake off, so setting it on
LiftStopped
Lift brake off, so setting it on
LiftStopped
Forward to kickstand
Lift brake off, so setting it on
LiftStopped
Lift brake off, so setting it on
LiftStopped
Lift brake off, so setting it on
LiftStopped
Lift brake off, so setting it on
LiftStopped
Lift brake off, so setting it on
LiftStopped
Lift brake off, so setting it on
LiftStopped
Lift brake off, so setting it on
LiftStopped
Lift brake off, so setting it on
LiftStopped
Lift brake off, so setting it on
LiftStopped
Lift brake off, so setting it on
LiftStopped
Lift brake off, so setting it on
LiftStopped
Lift brake off, so setting it on
LiftStopped
Lift brake off, so setting it on
LiftStopped
Lift brake off, so setting it on
LiftStopped
Lift brake off, so setting it on
LiftStopped
Lift brake off, so setting it on
LiftStopped
Lift brake off, so setting it on
LiftStopped
Lift brake off, so setting it on
LiftStopped
Lift brake off, so setting it on
LiftStopped
Lift brake off, so setting it on
LiftStopped
Lift brake off, so setting it on
LiftStopped
Lift brake off, so setting it on
LiftStopped
Lift brake off, so setting it on
LiftStopped
Lift brake off, so setting it on
LiftStopped
Lift brake off, so setting it on
LiftStopped
Lift brake off, so setting it on
LiftStopped
Lift brake off, so setting it on
LiftStopped
Lift brake off, so setting it on
LiftStopped
Lift brake off, so setting it on
LiftStopped
Lift brake off, so setting it on
LiftStopped
Lift brake off, so setting it on
LiftStopped
Lift brake off, so setting it on
LiftStopped
Lift brake off, so setting it on
LiftStopped
Lift brake off, so setting it on
LiftStopped
Lift brake off, so setting it on
LiftStopped
Lift brake off, so setting it on
LiftStopped
Lift brake off, so setting it on
LiftStopped
Lift brake off, so setting it on
LiftStopped
Lift brake off, so setting it on
LiftStopped
Lift brake off, so setting it on
LiftStopped
Lift brake off, so setting it on
LiftStopped
Lift brake off, so setting it on
LiftStopped
Lift brake off, so setting it on
LiftStopped
Lift brake off, so setting it on
LiftStopped
Lift brake off, so setting it on
LiftStopped
Lift brake off, so setting it on
LiftStopped
Lift brake off, so setting it on
LiftStopped
Lift brake off, so setting it on
LiftStopped
Lift brake off, so setting it on
LiftStopped
Lift brake off, so setting it on
LiftStopped
Lift brake off, so setting it on
LiftStopped
Lift brake off, so setting it on
LiftStopped
Lift brake off, so setting it on
LiftStopped
Lift brake off, so setting it on
LiftStopped
Lift brake off, so setting it on
LiftStopped
Lift brake off, so setting it on
LiftStopped
Lift brake off, so setting it on
LiftStopped
Lift brake off, so setting it on
LiftStopped
Lift brake off, so setting it on
LiftStopped
Lift brake off, so setting it on
LiftStopped
Lift brake off, so setting it on
LiftStopped
Lift brake off, so setting it on
LiftStopped
Lift brake off, so setting it on
LiftStopped
Lift brake off, so setting it on
LiftStopped
Lift brake off, so setting it on
LiftStopped
Lift brake off, so setting it on
LiftStopped
Lift brake off, so setting it on
LiftStopped
Lift brake off, so setting it on
LiftStopped
Lift brake off, so setting it on
LiftStopped
Lift brake off, so setting it on
LiftStopped
Lift brake off, so setting it on
LiftStopped
Lift brake off, so setting it on
LiftStopped
Lift brake off, so setting it on
LiftStopped
Lift brake off, so setting it on
LiftStopped
Lift brake off, so setting it on
LiftStopped
Lift brake off, so setting it on
LiftStopped
Lift brake off, so setting it on
LiftStopped
Lift brake off, so setting it on
LiftStopped
Lift brake off, so setting it on
LiftStopped
Lift brake off, so setting it on
LiftStopped
Lift brake off, so setting it on
Lirake off, so setting it on
LiftStopped
Lift brake off, rake off, so setting it on
LiftStopped
Lift brake off, so setting it on
LiftStopped
Lift brake off, so setting it on
LiftStopped
Lift brake off, so setting it on
LiftStopped
Lift brake off, so setting it on
LiftStopped
Lift brake off, so setting it on
LiftStopped
Lift brake off, so setting it on
LiftStopped
Lift brake off, so setting it on
LiftStoprake off, so setting it on
LiftStopped
Lift brake off, so setting it on
LiftStopped
Lift brake off, so setting it on
LiftStopped
Lift brake off, so setting it on
LiftStopped
Lift brake off, so setting it on
LiftStopped
Lift brake off, so setting it on
LiftStopped
Lift brake off, so setting it on
LiftStopped
Lift brake off, so setting it on
LiftStopped
Lift brake off, so setting it on
LiftStopped
Lift brake off, so setting it on
LiftStopped
Lift brake off, so setting it on
LiftStopped
Lift brake off, so setting it on
LiftStopped
Lift brake off, so setting it on
LiftStopped
Lift brake off, so setting it on
LiftStopped
Lift brake off, so setting it on
LiftStopped
Lift brake off, so setting it on
LiftStopped
Lift brake off, so setting it on
LiftStopped
Lift brake off, so setting it on
LiftStopped
Lift brake off, so setting it on
LiftStopped
Lift brake off, so setting it on
LiftStopped
Lift brake off, so setting it on
LiftStopped
Lift brake off, so setting it on
LiftStopped
Lift brake off, so setting it on
LiftStopped
Lift brake off, so setting it on
LiftStopped
Lift brake off, so setting it on
LiftStopped
Lift brake off, so setting it on
LiftStopped
Lift brake off, so setting it on
LiftStopped
Lift brake off, so setting it on
LiftStopped
Lift brake off, so setting it on
LiftStopped
Lift brake off, so setting it on
LiftStopped
Lift brake off, so setting it on
LiftStopped
Lift brake off, so setting it on
LiftStopped
Lift brake off, so setting it on
LiftStopped
Lift brake off, so setting it on
LiftStopped
Lift brake off, so setting it on
LiftStopped
Lift brake off, so setting it on
LiftStopped
Lift brake off, so setting it on
LiftStopped
Lift brake off, so setting it on
LiftStopped
Lift brake off, so setting it on
LiftStopped
Lift brake off, so setting it on
LiftStopped
Lift brake off, so setting it on
LiftStopped
Lift brake off, so setting it on
LiftStopped
Lift brake off, so setting it on
LiftStopped
Lift brake off, so setting it on
LiftStopped
Lift brake off, so setting it on
LiftStopped
Lift brake off, so setting it on
LiftStopped
Lift brake off, so setting it on
LiftStopped
Lift brake off, so setting it on
LiftStopped
Lift brake off, so setting it on
LiftStopped
Lift brake off, so setting it on
LiftStopped
Lift brake off, so setting it on
LiftStopped
Lift brake off, so setting it on
LiftStopped
Lift brake off, so setting it on
LiftStopped
Lift brake off, so setting it on
LiftStopped
Lift brake off, so setting it on
LiftStopped
Lift brake off, so setting it on
LiftStopped
Lift brake off, so setting it on
LiftStopped
Lift brake off, so setting it on
LiftStopped
Lift brake off, so setting it on
LiftStopped
Lift brake off, so setting it on
LiftStopped
Lift brake off, so setting it on
LiftStopped
Lift brake off, so setting it on
LiftStopped
Lift brake off, so setting it on
LiftStopped
Lift brake off, so setting it on
LiftStopped
Lift brake off, so setting it on
LiftStopped
Lift brake off, so setting it on
LiftStopped
Lift brake off, so setting it on
LiftStopped
Lift brake off, so setting it on
LiftStopped
Lift brake off, so setting it on
LiftStopped
Lift brake off, so setting it on
LiftStopped
Lift brake off, so setting it on
LiftStopped
Lift brake off, so setting it on
LiftStopped
Lift brake off, so setting it on
LiftStopped
Lift brake off, so setting it on
LiftStopped
Lift brake off, so setting it on
LiftStopped
Lift brake off, so setting it on
LiftStopped
Lift brake off, so setting it on
LiftStopped
Lift brake off, so setting it on
LiftStopped
Lift brake off, so setting it on
LiftStopped
Lift brake off, so setting it on
LiftStopped
ift brake off, so setting it on
LiftStopped
Lift brake off, so setting it on
LiftStopped
Lift brake off, so setting it on
LiftStopped
Lift brake off, so setting it on
LiftStopped
Lift brake off, so setting it on
LiftStopped
Lift brake off, so setting it on
LiftStopped
Lift brake off, so setting it on
LiftStopped
Lift brake off, so setting it on
LiftStopped
Lift brake off, so setting it on
LiftStopped
Lift brake off, so setting it on
LiftStopped
Lift brake off, so setting it on
LiftStopped
Lift brake off, so setting it on
LiftStopped
Lift brake off, so setting it on
LiftStopped
Lift brake off, so setting it on
LiftStopped
Lift brake off, so setting it on
LiftStopped
Lift brake off, so setting it on
LiftStopped
Lift brake off, so setting it on
LiftStopped
Lift brake off, so setting it on
LiftStopped
Lift brake off, so setting it on
LiftStopped
Lift brake off, so setting it on
LiftStopped
Lift brake off, so setting it on
LiftStopped
Lift brake off, so setting it on
LiftStopped
Lift brake off, so setting it on
LiftStopped
Lift brake off, so setting it on
LiftStopped
Lift brake off, so setting it on
LiftStopped
Lift brake off, so setting it on
LiftStopped
Lift brake off, so setting it on
LiftStopped
Lift brake off, so setting it on
LiftStopped
Lift brake off, so setting it on
LiftStopped
Lift brake off, so setting it on
LiftStopped
Lift brake off, so setting it on
LiftStopped
Lift brake off, so setting it on
LiftStopped
Lift brake off, so setting it on
LiftStopped
Lift brake off, so setting it on
LiftStopped
Lift brake off, so setting it on
LiftStopped
Lift brake off, so setting it on
LiftStopped
Lift brake off, so setting it on
LiftStopped
Lift brake off, so setting it on
LiftStopped
Lift brake off, so setting it on
LiftStopped
Lift brake off, so setting it on
LiftStopped
Lift brake off, so setting it on
LiftStopped
Lift brake off, so setting it on
LiftStopped
Lift brake off, so setting it on
LiftStopped
Lift brake off, so setting it on
LiftStopped
Lift brake off, so setting it on
LiftStopped
Lift brake off, so setting it on
LiftStopped
Lift brake off, so setting it on
LiftStopped
Lift brake off, so setting it on
LiftStopped
Lift brake off, so setting it on
LiftStopped
Lift brake off, so setting it on
LiftStopped
Lift brake off, so setting it on
LiftStopped
Lift brake off, so setting it on
LiftStopped
Lift brake off, so setting it on
LiftStopped
Lift brake off, so setting it on
LiftStopped
Lift brake off, so setting it on
LiftStopped
Lift brake off, so setting it on
LiftStopped
Lift brake off, so setting it on
LiftStopped
Lift brake off, so setting it on
LiftStopped
Lift brake off, so setting it on
LiftStopped
Lift brake off, so setting it on
LiftStopped
Lift brake off, so setting it on
LiftStopped
Lift brake off, so setting it on
LiftStopped
Lift brake off, so setting it on
LiftStopped
Lift brake off, so setting it on
LiftStopped
Lift brake off, so setting it on
LiftStopped
Lift brake off, so setting it on
LiftStopped
Lift brake off, so setting it on
LiftStopped
Lift brake off, so setting it on
LiftStopped
Lift brake off, so setting it on
LiftStopped
Lift brake off, so setting it on
LiftStopped
Lift brake off, so setting it on
LiftStopped
Lift brake off, so setting it on
LiftStopped
Lift brake off, so setting it on
LiftStopped
Lift brake off, so setting it on
LiftStopped
Lift brake off, so setting it on
LiftStopped
Lift brake off, so setting it on
LiftStopped
Lift brake off, so setting it on
LiftStopped
Lift brake off, so setting it on
LiftStopped
Lift brake off, so setting it on
LiftStopped
Lift brake off, so setting it on
LiftStopped
Lift brake off, so setting it on
LiftStopped
Lift brake off, so setting it on
LiftStopped
Lift brake off, so setting it on
LiftStopped
Stopping DriveTrain
Lift brake off, so setting it on
LiftStopped
Lift brake off, so setting it on
LiftStopped
Stopping DriveTrain
Lift brake off, so setting it on
LiftStopped
Lift brake off, so setting it on
LiftStopped
Lift brake off, so setting it on
LiftStopped