initializing Gyro
gyro>mux calibration
Initializing IR
initializing EOPD Down
initializing Ultrasonic
initialzing Light Sensor
MUX> Setting Light On
initializing EOPD Forward
Initial US value: 255
DriveToUSValue: dist(cm): 255 targ: 150 > drive dist(ticks): 0  elapsed: 33
DriveToUSValue: dist(cm): 255 targ: 150 > drive dist(ticks): 0  elapsed: 54
DriveToUSValue: dist(cm): 255 targ: 150 > drive dist(ticks): 0  elapsed: 72
DriveToUSValue: dist(cm): 255 targ: 150 > drive dist(ticks): 2  elapsed: 93
DriveToUSValue: dist(cm): 255 targ: 150 > drive dist(ticks): 10  elapsed: 115
DriveToUSValue: dist(cm): 255 targ: 150 > drive dist(ticks): 25  elapsed: 134
DriveToUSValue: dist(cm): 255 targ: 150 > drive dist(ticks): 35  elapsed: 151
DriveToUSValue: dist(cm): 255 targ: 150 > drive dist(ticks): 44  elapsed: 172
DriveToUSValue: dist(cm): 255 targ: 150 > drive dist(ticks): 64  elapsed: 192
DriveToUSValue: dist(cm): 255 targ: 150 > drive dist(ticks): 87  elapsed: 210
DriveToUSValue: dist(cm): 132 targ: 150 > drive dist(ticks): 115  elapsed: 231
D: 132, O: 3
BG arm pos: 0
TURNING LEFT  - Current gyro: 0.00 	Target gyro: -55.00
BG arm pos: 0
TURNING LEFT  - Current gyro: 0.00 	Target gyro: -55.00
BG arm pos: 0
TURNING LEFT  - Current gyro: -0.06 	Target gyro: -55.00
BG arm pos: -5
TURNING LEFT  - Current gyro: -0.20 	Target gyro: -55.00
BG arm pos: -11
TURNING LEFT  - Current gyro: -0.39 	Target gyro: -55.00
BG arm pos: -19
TURNING LEFT  - Current gyro: -0.66 	Target gyro: -55.00
BG arm pos: -19
TURNING LEFT  - Current gyro: -0.91 	Target gyro: -55.00
BG arm pos: -21
TURNING LEFT  - Current gyro: -1.22 	Target gyro: -55.00
BG arm pos: -25
TURNING LEFT  - Current gyro: -1.54 	Target gyro: -55.00
BG arm pos: -28
TURNING LEFT  - Current gyro: -1.93 	Target gyro: -55.00
BG arm pos: -32
TURNING LEFT  - Current gyro: -2.29 	Target gyro: -55.00
BG arm pos: -38
TURNING LEFT  - Current gyro: -2.65 	Target gyro: -55.00
BG arm pos: -41
TURNING LEFT  - Current gyro: -3.01 	Target gyro: -55.00
BG arm pos: -52
TURNING LEFT  - Current gyro: -3.40 	Target gyro: -55.00
BG arm pos: -57
TURNING LEFT  - Current gyro: -3.97 	Target gyro: -55.00
BG arm pos: -70
TURNING LEFT  - Current gyro: -4.71 	Target gyro: -55.00
BG arm pos: -77
TURNING LEFT  - Current gyro: -5.36 	Target gyro: -55.00
BG arm pos: -85
TURNING LEFT  - Current gyro: -5.97 	Target gyro: -55.00
BG arm pos: -108
TURNING LEFT  - Current gyro: -6.55 	Target gyro: -55.00
BG arm pos: -116
TURNING LEFT  - Current gyro: -6.99 	Target gyro: -55.00
BG arm pos: -138
TURNING LEFT  - Current gyro: -7.51 	Target gyro: -55.00
BG arm pos: -163
TURNING LEFT  - Current gyro: -8.08 	Target gyro: -55.00
BG arm pos: -177
TURNING LEFT  - Current gyro: -8.84 	Target gyro: -55.00
BG arm pos: -194
TURNING LEFT  - Current gyro: -9.56 	Target gyro: -55.00
BG arm pos: -223
TURNING LEFT  - Current gyro: -10.24 	Target gyro: -55.00
BG arm pos: -242
TURNING LEFT  - Current gyro: -10.83 	Target gyro: -55.00
BG arm pos: -284
TURNING LEFT  - Current gyro: -11.42 	Target gyro: -55.00
BG arm pos: -302
TURNING LEFT  - Current gyro: -12.03 	Target gyro: -55.00
BG arm pos: -340
TURNING LEFT  - Current gyro: -12.57 	Target gyro: -55.00
BG arm pos: -376
TURNING LEFT  - Current gyro: -13.11 	Target gyro: -55.00
BG arm pos: -402
TURNING LEFT  - Current gyro: -13.72 	Target gyro: -55.00
BG arm pos: -419
TURNING LEFT  - Current gyro: -14.16 	Target gyro: -55.00
BG arm pos: -449
TURNING LEFT  - Current gyro: -14.74 	Target gyro: -55.00
TURNING LEFT  - Current gyro: -15.30 	Target gyro: -55.00
TURNING LEFT  - Current gyro: -15.87 	Target gyro: -55.00
TURNING LEFT  - Current gyro: -16.43 	Target gyro: -55.00
TURNING LEFT  - Current gyro: -17.02 	Target gyro: -55.00
TURNING LEFT  - Current gyro: -17.53 	Target gyro: -55.00
TURNING LEFT  - Current gyro: -18.09 	Target gyro: -55.00
TURNING LEFT  - Current gyro: -18.59 	Target gyro: -55.00
TURNING LEFT  - Current gyro: -19.09 	Target gyro: -55.00
TURNING LEFT  - Current gyro: -19.67 	Target gyro: -55.00
TURNING LEFT  - Current gyro: -20.26 	Target gyro: -55.00
TURNING LEFT  - Current gyro: -20.81 	Target gyro: -55.00
TURNING LEFT  - Current gyro: -21.45 	Target gyro: -55.00
TURNING LEFT  - Current gyro: -22.04 	Target gyro: -55.00
TURNING LEFT  - Current gyro: -22.49 	Target gyro: -55.00
TURNING LEFT  - Current gyro: -22.95 	Target gyro: -55.00
TURNING LEFT  - Current gyro: -23.60 	Target gyro: -55.00
TURNING LEFT  - Current gyro: -24.29 	Target gyro: -55.00
TURNING LEFT  - Current gyro: -25.10 	Target gyro: -55.00
TURNING LEFT  - Current gyro: -25.75 	Target gyro: -55.00
TURNING LEFT  - Current gyro: -26.29 	Target gyro: -55.00
TURNING LEFT  - Current gyro: -26.80 	Target gyro: -55.00
TURNING LEFT  - Current gyro: -27.44 	Target gyro: -55.00
TURNING LEFT  - Current gyro: -27.91 	Target gyro: -55.00
TURNING LEFT  - Current gyro: -28.36 	Target gyro: -55.00
TURNING LEFT  - Current gyro: -28.87 	Target gyro: -55.00
TURNING LEFT  - Current gyro: -29.41 	Target gyro: -55.00
TURNING LEFT  - Current gyro: -29.94 	Target gyro: -55.00
TURNING LEFT  - Current gyro: -30.55 	Target gyro: -55.00
TURNING LEFT  - Current gyro: -31.14 	Target gyro: -55.00
TURNING LEFT  - Current gyro: -31.67 	Target gyro: -55.00
TURNING LEFT  - Current gyro: -32.30 	Target gyro: -55.00
TURNING LEFT  - Current gyro: -32.97 	Target gyro: -55.00
TURNING LEFT  - Current gyro: -33.65 	Target gyro: -55.00
TURNING LEFT  - Current gyro: -34.22 	Target gyro: -55.00
TURNING LEFT  - Current gyro: -34.88 	Target gyro: -55.00
TURNING LEFT  - Current gyro: -35.33 	Target gyro: -55.00
TURNING LEFT  - Current gyro: -35.83 	Target gyro: -55.00
TURNING LEFT  - Current gyro: -36.28 	Target gyro: -55.00
TURNING LEFT  - Current gyro: -36.71 	Target gyro: -55.00
TURNING LEFT  - Current gyro: -36.96 	Target gyro: -55.00
TURNING LEFT  - Current gyro: -37.34 	Target gyro: -55.00
TURNING LEFT  - Current gyro: -37.97 	Target gyro: -55.00
TURNING LEFT  - Current gyro: -38.63 	Target gyro: -55.00
TURNING LEFT  - Current gyro: -39.17 	Target gyro: -55.00
TURNING LEFT  - Current gyro: -39.70 	Target gyro: -55.00
TURNING LEFT  - Current gyro: -40.17 	Target gyro: -55.00
TURNING LEFT  - Current gyro: -40.69 	Target gyro: -55.00
TURNING LEFT  - Current gyro: -41.19 	Target gyro: -55.00
TURNING LEFT  - Current gyro: -41.85 	Target gyro: -55.00
TURNING LEFT  - Current gyro: -42.44 	Target gyro: -55.00
TURNING LEFT  - Current gyro: -43.03 	Target gyro: -55.00
TURNING LEFT  - Current gyro: -43.61 	Target gyro: -55.00
TURNING LEFT  - Current gyro: -44.13 	Target gyro: -55.00
TURNING LEFT  - Current gyro: -44.65 	Target gyro: -55.00
TURNING LEFT  - Current gyro: -45.17 	Target gyro: -55.00
TURNING LEFT  - Current gyro: -45.64 	Target gyro: -55.00
TURNING LEFT  - Current gyro: -46.21 	Target gyro: -55.00
TURNING LEFT  - Current gyro: -46.64 	Target gyro: -55.00
TURNING LEFT  - Current gyro: -47.16 	Target gyro: -55.00
TURNING LEFT  - Current gyro: -47.63 	Target gyro: -55.00
TURNING LEFT  - Current gyro: -48.11 	Target gyro: -55.00
TURNING LEFT  - Current gyro: -48.70 	Target gyro: -55.00
TURNING LEFT  - Current gyro: -49.40 	Target gyro: -55.00
TURNING LEFT  - Current gyro: -50.12 	Target gyro: -55.00
TURNING LEFT  - Current gyro: -50.90 	Target gyro: -55.00
TURNING LEFT  - Current gyro: -51.46 	Target gyro: -55.00
TURNING LEFT  - Current gyro: -52.05 	Target gyro: -55.00
TURNING LEFT  - Current gyro: -52.56 	Target gyro: -55.00
TURNING LEFT  - Current gyro: -53.14 	Target gyro: -55.00
TURNING LEFT  - Current gyro: -53.70 	Target gyro: -55.00
TURNING LEFT  - Current gyro: -54.28 	Target gyro: -55.00
TURNING LEFT  - Current gyro: -54.76 	Target gyro: -55.00
TURNING LEFT  - Current gyro: -55.28 	Target gyro: -55.00
Stopping DriveTrain
Orientation 3: slalom left turn completed
Stopping DriveTrain
Orientation 3: drive straight completed
TURNING RIGHT - Current gyro: 0.00 	Target gyro: 55.00
TURNING RIGHT - Current gyro: 0.00 	Target gyro: 55.00
TURNING RIGHT - Current gyro: -0.05 	Target gyro: 55.00
TURNING RIGHT - Current gyro: -0.23 	Target gyro: 55.00
TURNING RIGHT - Current gyro: -0.56 	Target gyro: 55.00
TURNING RIGHT - Current gyro: -0.75 	Target gyro: 55.00
TURNING RIGHT - Current gyro: -0.75 	Target gyro: 55.00
TURNING RIGHT - Current gyro: -0.63 	Target gyro: 55.00
TURNING RIGHT - Current gyro: -0.40 	Target gyro: 55.00
TURNING RIGHT - Current gyro: -0.15 	Target gyro: 55.00
TURNING RIGHT - Current gyro: 0.14 	Target gyro: 55.00
TURNING RIGHT - Current gyro: 0.37 	Target gyro: 55.00
TURNING RIGHT - Current gyro: 0.60 	Target gyro: 55.00
TURNING RIGHT - Current gyro: 0.83 	Target gyro: 55.00
TURNING RIGHT - Current gyro: 1.12 	Target gyro: 55.00
TURNING RIGHT - Current gyro: 1.56 	Target gyro: 55.00
TURNING RIGHT - Current gyro: 1.94 	Target gyro: 55.00
TURNING RIGHT - Current gyro: 2.35 	Target gyro: 55.00
TURNING RIGHT - Current gyro: 2.73 	Target gyro: 55.00
TURNING RIGHT - Current gyro: 3.19 	Target gyro: 55.00
TURNING RIGHT - Current gyro: 3.77 	Target gyro: 55.00
TURNING RIGHT - Current gyro: 4.44 	Target gyro: 55.00
TURNING RIGHT - Current gyro: 5.18 	Target gyro: 55.00
TURNING RIGHT - Current gyro: 5.92 	Target gyro: 55.00
TURNING RIGHT - Current gyro: 6.47 	Target gyro: 55.00
TURNING RIGHT - Current gyro: 6.99 	Target gyro: 55.00
TURNING RIGHT - Current gyro: 7.77 	Target gyro: 55.00
TURNING RIGHT - Current gyro: 8.37 	Target gyro: 55.00
TURNING RIGHT - Current gyro: 8.95 	Target gyro: 55.00
TURNING RIGHT - Current gyro: 9.50 	Target gyro: 55.00
TURNING RIGHT - Current gyro: 10.17 	Target gyro: 55.00
TURNING RIGHT - Current gyro: 10.88 	Target gyro: 55.00
TURNING RIGHT - Current gyro: 11.70 	Target gyro: 55.00
TURNING RIGHT - Current gyro: 12.29 	Target gyro: 55.00
TURNING RIGHT - Current gyro: 12.85 	Target gyro: 55.00
TURNING RIGHT - Current gyro: 13.43 	Target gyro: 55.00
TURNING RIGHT - Current gyro: 13.98 	Target gyro: 55.00
TURNING RIGHT - Current gyro: 14.70 	Target gyro: 55.00
TURNING RIGHT - Current gyro: 15.33 	Target gyro: 55.00
TURNING RIGHT - Current gyro: 15.97 	Target gyro: 55.00
TURNING RIGHT - Current gyro: 16.47 	Target gyro: 55.00
TURNING RIGHT - Current gyro: 16.99 	Target gyro: 55.00
TURNING RIGHT - Current gyro: 17.51 	Target gyro: 55.00
TURNING RIGHT - Current gyro: 18.04 	Target gyro: 55.00
TURNING RIGHT - Current gyro: 18.62 	Target gyro: 55.00
TURNING RIGHT - Current gyro: 19.22 	Target gyro: 55.00
TURNING RIGHT - Current gyro: 19.76 	Target gyro: 55.00
TURNING RIGHT - Current gyro: 20.27 	Target gyro: 55.00
TURNING RIGHT - Current gyro: 20.74 	Target gyro: 55.00
TURNING RIGHT - Current gyro: 21.39 	Target gyro: 55.00
TURNING RIGHT - Current gyro: 21.89 	Target gyro: 55.00
TURNING RIGHT - Current gyro: 22.35 	Target gyro: 55.00
TURNING RIGHT - Current gyro: 22.99 	Target gyro: 55.00
TURNING RIGHT - Current gyro: 23.79 	Target gyro: 55.00
TURNING RIGHT - Current gyro: 24.49 	Target gyro: 55.00
TURNING RIGHT - Current gyro: 25.29 	Target gyro: 55.00
TURNING RIGHT - Current gyro: 25.89 	Target gyro: 55.00
TURNING RIGHT - Current gyro: 26.50 	Target gyro: 55.00
TURNING RIGHT - Current gyro: 27.06 	Target gyro: 55.00
TURNING RIGHT - Current gyro: 27.61 	Target gyro: 55.00
TURNING RIGHT - Current gyro: 28.25 	Target gyro: 55.00
TURNING RIGHT - Current gyro: 28.89 	Target gyro: 55.00
TURNING RIGHT - Current gyro: 29.45 	Target gyro: 55.00
TURNING RIGHT - Current gyro: 30.06 	Target gyro: 55.00
TURNING RIGHT - Current gyro: 30.62 	Target gyro: 55.00
TURNING RIGHT - Current gyro: 31.21 	Target gyro: 55.00
TURNING RIGHT - Current gyro: 31.74 	Target gyro: 55.00
TURNING RIGHT - Current gyro: 32.37 	Target gyro: 55.00
TURNING RIGHT - Current gyro: 32.91 	Target gyro: 55.00
TURNING RIGHT - Current gyro: 33.38 	Target gyro: 55.00
TURNING RIGHT - Current gyro: 33.87 	Target gyro: 55.00
TURNING RIGHT - Current gyro: 34.52 	Target gyro: 55.00
TURNING RIGHT - Current gyro: 34.99 	Target gyro: 55.00
TURNING RIGHT - Current gyro: 35.50 	Target gyro: 55.00
TURNING RIGHT - Current gyro: 36.00 	Target gyro: 55.00
TURNING RIGHT - Current gyro: 36.62 	Target gyro: 55.00
TURNING RIGHT - Current gyro: 37.31 	Target gyro: 55.00
TURNING RIGHT - Current gyro: 38.15 	Target gyro: 55.00
TURNING RIGHT - Current gyro: 38.79 	Target gyro: 55.00
TURNING RIGHT - Current gyro: 39.39 	Target gyro: 55.00
TURNING RIGHT - Current gyro: 39.94 	Target gyro: 55.00
TURNING RIGHT - Current gyro: 40.49 	Target gyro: 55.00
TURNING RIGHT - Current gyro: 41.13 	Target gyro: 55.00
TURNING RIGHT - Current gyro: 41.64 	Target gyro: 55.00
TURNING RIGHT - Current gyro: 42.19 	Target gyro: 55.00
TURNING RIGHT - Current gyro: 42.91 	Target gyro: 55.00
TURNING RIGHT - Current gyro: 43.67 	Target gyro: 55.00
TURNING RIGHT - Current gyro: 44.35 	Target gyro: 55.00
TURNING RIGHT - Current gyro: 44.91 	Target gyro: 55.00
TURNING RIGHT - Current gyro: 45.38 	Target gyro: 55.00
TURNING RIGHT - Current gyro: 45.87 	Target gyro: 55.00
TURNING RIGHT - Current gyro: 46.46 	Target gyro: 55.00
TURNING RIGHT - Current gyro: 46.97 	Target gyro: 55.00
TURNING RIGHT - Current gyro: 47.53 	Target gyro: 55.00
TURNING RIGHT - Current gyro: 48.02 	Target gyro: 55.00
TURNING RIGHT - Current gyro: 48.45 	Target gyro: 55.00
TURNING RIGHT - Current gyro: 48.91 	Target gyro: 55.00
TURNING RIGHT - Current gyro: 49.36 	Target gyro: 55.00
TURNING RIGHT - Current gyro: 49.94 	Target gyro: 55.00
TURNING RIGHT - Current gyro: 50.51 	Target gyro: 55.00
TURNING RIGHT - Current gyro: 51.16 	Target gyro: 55.00
TURNING RIGHT - Current gyro: 51.67 	Target gyro: 55.00
TURNING RIGHT - Current gyro: 52.14 	Target gyro: 55.00
TURNING RIGHT - Current gyro: 52.59 	Target gyro: 55.00
TURNING RIGHT - Current gyro: 53.05 	Target gyro: 55.00
TURNING RIGHT - Current gyro: 53.57 	Target gyro: 55.00
TURNING RIGHT - Current gyro: 54.07 	Target gyro: 55.00
TURNING RIGHT - Current gyro: 54.50 	Target gyro: 55.00
TURNING RIGHT - Current gyro: 55.15 	Target gyro: 55.00
Stopping DriveTrain
Orientation 3: slalom right turn completed
Initial IR value: 0
Current IR value: 7	Target IR value: 9
Current IR value: 7	Target IR value: 9
Current IR value: 7	Target IR value: 9
Current IR value: 7	Target IR value: 9
Current IR value: 7	Target IR value: 9
Current IR value: 7	Target IR value: 9
Current IR value: 7	Target IR value: 9
Current IR value: 7	Target IR value: 9
Current IR value: 7	Target IR value: 9
Current IR value: 7	Target IR value: 9
Current IR value: 7	Target IR value: 9
Current IR value: 7	Target IR value: 9
Current IR value: 7	Target IR value: 9
Current IR value: 7	Target IR value: 9
Current IR value: 7	Target IR value: 9
Current IR value: 7	Target IR value: 9
Current IR value: 7	Target IR value: 9
Current IR value: 7	Target IR value: 9
Current IR value: 7	Target IR value: 9
Current IR value: 7	Target IR value: 9
Current IR value: 7	Target IR value: 9
Current IR value: 7	Target IR value: 9
Current IR value: 7	Target IR value: 9
Current IR value: 7	Target IR value: 9
Current IR value: 7	Target IR value: 9
Current IR value: 7	Target IR value: 9
Current IR value: 7	Target IR value: 9
Current IR value: 7	Target IR value: 9
Current IR value: 7	Target IR value: 9
Current IR value: 7	Target IR value: 9
Current IR value: 7	Target IR value: 9
Current IR value: 7	Target IR value: 9
Current IR value: 7	Target IR value: 9
Current IR value: 7	Target IR value: 9
Current IR value: 7	Target IR value: 9
Current IR value: 7	Target IR value: 9
Current IR value: 7	Target IR value: 9
Current IR value: 7	Target IR value: 9
Current IR value: 7	Target IR value: 9
Current IR value: 7	Target IR value: 9
Current IR value: 7	Target IR value: 9
Current IR value: 7	Target IR value: 9
Current IR value: 9	Target IR value: 9
Stopping DriveTrain
Turning Right: 91.0 degrees  leftPower: 80  rightPower: -80
DriveTask> turning right: target Deg: 91.0 curDeg: 0.0  diff: 91.0
DriveTask> turning right: target Deg: 91.0 curDeg: 0.2  diff: 90.8
DriveTask> turning right: target Deg: 91.0 curDeg: 0.7  diff: 90.3
DriveTask> turning right: target Deg: 91.0 curDeg: 1.5  diff: 89.6
DriveTask> turning right: target Deg: 91.0 curDeg: 2.4  diff: 88.6
DriveTask> turning right: target Deg: 91.0 curDeg: 3.3  diff: 87.7
DriveTask> turning right: target Deg: 91.0 curDeg: 4.4  diff: 86.6
DriveTask> turning right: target Deg: 91.0 curDeg: 5.4  diff: 85.6
DriveTask> turning right: target Deg: 91.0 curDeg: 7.0  diff: 84.0
DriveTask> turning right: target Deg: 91.0 curDeg: 8.3  diff: 82.7
DriveTask> turning right: target Deg: 91.0 curDeg: 9.9  diff: 81.1
DriveTask> turning right: target Deg: 91.0 curDeg: 11.7  diff: 79.3
DriveTask> turning right: target Deg: 91.0 curDeg: 13.4  diff: 77.6
DriveTask> turning right: target Deg: 91.0 curDeg: 15.4  diff: 75.6
DriveTask> turning right: target Deg: 91.0 curDeg: 17.6  diff: 73.4
DriveTask> turning right: target Deg: 91.0 curDeg: 19.8  diff: 71.2
DriveTask> turning right: target Deg: 91.0 curDeg: 21.7  diff: 69.3
DriveTask> turning right: target Deg: 91.0 curDeg: 24.3  diff: 66.7
DriveTask> turning right: target Deg: 91.0 curDeg: 26.8  diff: 64.2
DriveTask> turning right: target Deg: 91.0 curDeg: 28.9  diff: 62.1
DriveTask> turning right: target Deg: 91.0 curDeg: 31.3  diff: 59.7
DriveTask> turning right: target Deg: 91.0 curDeg: 33.6  diff: 57.4
DriveTask> turning right: target Deg: 91.0 curDeg: 35.9  diff: 55.1
DriveTask> turning right: target Deg: 91.0 curDeg: 38.6  diff: 52.4
DriveTask> turning right: target Deg: 91.0 curDeg: 41.0  diff: 50.0
DriveTask> turning right: target Deg: 91.0 curDeg: 43.5  diff: 47.5
DriveTask> turning right: target Deg: 91.0 curDeg: 46.3  diff: 44.7
DriveTask> turning right: target Deg: 91.0 curDeg: 48.7  diff: 42.3
DriveTask> turning right: target Deg: 91.0 curDeg: 51.1  diff: 39.9
DriveTask> turning right: target Deg: 91.0 curDeg: 53.6  diff: 37.4
DriveTask> turning right: target Deg: 91.0 curDeg: 56.2  diff: 34.8
DriveTask> turning right: target Deg: 91.0 curDeg: 58.2  diff: 32.8
DriveTask> turning right: target Deg: 91.0 curDeg: 60.6  diff: 30.4
DriveTask> turning right: target Deg: 91.0 curDeg: 62.8  diff: 28.2
DriveTask> turning right: target Deg: 91.0 curDeg: 65.2  diff: 25.8
DriveTask> turning right: target Deg: 91.0 curDeg: 68.2  diff: 22.8
DriveTask> turning right: target Deg: 91.0 curDeg: 71.0  diff: 20.0
DriveTask> turning right: target Deg: 91.0 curDeg: 73.6  diff: 17.4
DriveTask> turning right: target Deg: 91.0 curDeg: 75.7  diff: 15.3
DriveTask> turning right: target Deg: 91.0 curDeg: 77.4  diff: 13.6
DriveTask> turning right: target Deg: 91.0 curDeg: 78.5  diff: 12.5
DriveTask> turning right: target Deg: 91.0 curDeg: 79.1  diff: 11.9
DriveTask> turning right: target Deg: 91.0 curDeg: 79.5  diff: 11.5
DriveTask> turning right: target Deg: 91.0 curDeg: 79.9  diff: 11.1
DriveTask> turning right: target Deg: 91.0 curDeg: 80.2  diff: 10.8
DriveTask> turning right: target Deg: 91.0 curDeg: 80.3  diff: 10.7
DriveTask> turning right: target Deg: 91.0 curDeg: 80.5  diff: 10.5
DriveTask> turning right: target Deg: 91.0 curDeg: 80.6  diff: 10.4
DriveTask> turning right: target Deg: 91.0 curDeg: 80.7  diff: 10.3
DriveTask> turning right: target Deg: 91.0 curDeg: 80.7  diff: 10.3
DriveTask> turning right: target Deg: 91.0 curDeg: 80.9  diff: 10.1
DriveTask> turning right: target Deg: 91.0 curDeg: 81.1  diff: 9.9
DriveTask> turning right: target Deg: 91.0 curDeg: 81.4  diff: 9.6
DriveTask> turning right: target Deg: 91.0 curDeg: 81.7  diff: 9.3
DriveTask> turning right: target Deg: 91.0 curDeg: 82.2  diff: 8.8
DriveTask> turning right: target Deg: 91.0 curDeg: 82.6  diff: 8.4
DriveTask> turning right: target Deg: 91.0 curDeg: 83.0  diff: 8.0
DriveTask> turning right: target Deg: 91.0 curDeg: 83.4  diff: 7.6
DriveTask> turning right: target Deg: 91.0 curDeg: 83.9  diff: 7.1
DriveTask> turning right: target Deg: 91.0 curDeg: 84.3  diff: 6.7
DriveTask> turning right: target Deg: 91.0 curDeg: 84.8  diff: 6.2
DriveTask> turning right: target Deg: 91.0 curDeg: 85.2  diff: 5.8
DriveTask> turning right: target Deg: 91.0 curDeg: 85.7  diff: 5.3
DriveTask> turning right: target Deg: 91.0 curDeg: 86.2  diff: 4.8
DriveTask> turning right: target Deg: 91.0 curDeg: 86.8  diff: 4.2
DriveTask> turning right: target Deg: 91.0 curDeg: 87.2  diff: 3.8
DriveTask> turning right: target Deg: 91.0 curDeg: 87.6  diff: 3.4
DriveTask> turning right: target Deg: 91.0 curDeg: 88.0  diff: 3.0
DriveTask> turning right: target Deg: 91.0 curDeg: 88.4  diff: 2.6
DriveTask> turning right: target Deg: 91.0 curDeg: 88.9  diff: 2.1
DriveTask> turning right: target Deg: 91.0 curDeg: 89.3  diff: 1.7
DriveTask> turning right: target Deg: 91.0 curDeg: 89.7  diff: 1.3
DriveTask> turning right: target Deg: 91.0 curDeg: 90.2  diff: 0.8
DriveTask> turning right: target Deg: 91.0 curDeg: 90.6  diff: 0.4
DriveTask> turning right: target Deg: 91.0 curDeg: 91.1  diff: -0.1
Stopping DriveTrain
UltraDrive: dist(cm): 33  drivetrain dist(ticks): -2  elapsed: 50
UltraDrive: dist(cm): 33  drivetrain dist(ticks): -3  elapsed: 80
UltraDrive: dist(cm): 33  drivetrain dist(ticks): -2  elapsed: 111
UltraDrive: dist(cm): 33  drivetrain dist(ticks): 20  elapsed: 141
UltraDrive: dist(cm): 33  drivetrain dist(ticks): 55  elapsed: 174
UltraDrive: dist(cm): 33  drivetrain dist(ticks): 85  elapsed: 205
UltraDrive: dist(cm): 33  drivetrain dist(ticks): 134  elapsed: 239
UltraDrive: dist(cm): 32  drivetrain dist(ticks): 189  elapsed: 268
UltraDrive: dist(cm): 32  drivetrain dist(ticks): 239  elapsed: 299
UltraDrive: dist(cm): 30  drivetrain dist(ticks): 288  elapsed: 329
UltraDrive: dist(cm): 28  drivetrain dist(ticks): 365  elapsed: 362
UltraDrive: dist(cm): 28  drivetrain dist(ticks): 427  elapsed: 391
UltraDrive: dist(cm): 26  drivetrain dist(ticks): 485  elapsed: 424
UltraDrive: dist(cm): 23  drivetrain dist(ticks): 555  elapsed: 455
EOPD starting distance: 0.83 okay, proceed
EOPDDrive: dist: 0.77  drivetrain dist(ticks): 657  timer: 17058
Stopping DriveTrain
Done Driving. Lift is stopped, we are done
Stopping DriveTrain
Stopping DriveTrain