initializing Gyro
gyro>mux calibration
Initializing IR
initializing EOPD Down
initializing Ultrasonic
initialzing Light Sensor
Setting Light On
MUX> Setting Light On
initializing EOPD Forward
Waiting for Start
Waiting over
Moving Lift...
MOTORMoveToTarget> target: 7000 > current: 0
MOTORMoveToTarget> power: 75
MOTORMoveToTarget> Motor is moving!
Plowing
Lift Moving: target: 7000 cur: 0
Lift Moving: target: 7000 cur: 0
Lift Moving: target: 7000 cur: 61
Lift Moving: target: 7000 cur: 143
Plowed
Lift Moving: target: 7000 cur: 211
Lift Moving: target: 7000 cur: 329
Lift Moving: target: 7000 cur: 440
Lift Moving: target: 7000 cur: 504
Lift Moving: target: 7000 cur: 643
Lift Moving: target: 7000 cur: 768
Lift Moving: target: 7000 cur: 829
Lift Moving: target: 7000 cur: 972
Lift Moving: target: 7000 cur: 1112
Lift Moving: target: 7000 cur: 1177
Lift Moving: target: 7000 cur: 1322
Lift Moving: target: 7000 cur: 1463
Lift Moving: target: 7000 cur: 1588
Lift Moving: target: 7000 cur: 1671
Lift Moving: target: 7000 cur: 1805
Lift Moving: target: 7000 cur: 1933
Lift Moving: target: 7000 cur: 2075
Lift Moving: target: 7000 cur: 2148
Lift Moving: target: 7000 cur: 2280
Lift Moving: target: 7000 cur: 2420
Lift Moving: target: 7000 cur: 2556
Lift Moving: target: 7000 cur: 2617
Lift Moving: target: 7000 cur: 2763
Lift Moving: target: 7000 cur: 2896
Lift Moving: target: 7000 cur: 2952
Lift Moving: target: 7000 cur: 3076
MOTORMoveToTarget> target: -470 > current: 0
MOTORMoveToTarget> power: -20
MOTORMoveToTarget> Motor is moving!
Lift Moving: target: 7000 cur: 3218
Lift Moving: target: 7000 cur: 3337
Lift Moving: target: 7000 cur: 3399
Lift Moving: target: 7000 cur: 3546
Lift Moving: target: 7000 cur: 3680
Lift Moving: target: 7000 cur: 3807
Lift Moving: target: 7000 cur: 3937
Lift Moving: target: 7000 cur: 4004
Lift Moving: target: 7000 cur: 4119
Lift Moving: target: 7000 cur: 4257
Lift Moving: target: 7000 cur: 4387
Lift Moving: target: 7000 cur: 4497
Lift Moving: target: 7000 cur: 4575
Lift Moving: target: 7000 cur: 4701
Lift Moving: target: 7000 cur: 4814
Lift Moving: target: 7000 cur: 4952
Lift Moving: target: 7000 cur: 5017
Lift Moving: target: 7000 cur: 5131
Lift Moving: target: 7000 cur: 5200
Lift Moving: target: 7000 cur: 5335
Lift Moving: target: 7000 cur: 5459
Lift Moving: target: 7000 cur: 5521
Lift Moving: target: 7000 cur: 5656
Lift Moving: target: 7000 cur: 5715
Lift Moving: target: 7000 cur: 5819
Lift Moving: target: 7000 cur: 5944
Plowing
Lift Moving: target: 7000 cur: 6073
Exiting> bAutoOK = false
