initializing sensors
initializing Gyro
mux calibration
Initializing IR
initializing EOPD Down
initializing Ultrasonic
initialzing Light Sensor
Setting Light On
MUX> Setting Light On
initializing EOPD Forward
Initializing DriveTrain
DriveTrain Test Starting...
Press button> 1:TurnLeft 90 deg 2:MoveBackwards 12in 3:TurnRight 90 deg 4:MoveFoward 12in
   5:Turn Right 180 deg 6:Turn left 180 deg 7:Turn Right 45 deg 8: tTurn left 45 deg 10:Exit Testing
Turn right 90 degrees
Turning Right: 90.0 degrees  leftt: target Deg: 90.0 curDeg: -2.9  diff: 92.9
DriveTask> turning right: target Deg: 90.0 curDeg: -3.3  diff: 93.3
DriveTask> turning right: target Deg: 90.0 curDeg: -3.6  diff: 93.6
DriveTask> turning right: target Deg: 90.0 curDeg: -4.0  diff: 94.0
DriveTask> turning right: target Deg: 90.0 curDeg: -4.4  diff: 94.4
DriveTask> turning right: target f: 100.9
DriveTask> turning right: target Deg: 90.0 curDeg: -11.3  diff: 101.3
DriveTask> turning right: target Deg: 90.0 curDeg: -11.9  diff: 101.9
DriveTask> turning right: target Deg: 90.0 curDeg: -12.3  diff: 102.3
DriveTask> turning right: target Deg: 90.0 curDeg: -12.7  diff: 102.7
DriveTask> turning right: target Deg: 90.0 curDeg: -13.1  diff: 114.2
DriveTask> turning right: target Deg: 90.0 curDeg: -24.6  diff: 114.6
DriveTask> turning right: target Deg: 90.0 curDeg: -24.9  diff: 114.9
DriveTask> turning right: target Deg: 90.0 curDeg: -25.3  diff: 115.3
DriveTask> turning right: target Deg: 90.0 curDeg: -25.7  diff: 115.7
DriveTask> turning right: target Deg: 90.0 curDeg: -26.1  diff: 119.2
DriveTask> turning right: target Deg: 90.0 curDeg: -29.6  diff: 119.6
DriveTask> turning right: target Deg: 90.0 curDeg: -30.0  diff: 120.0
DriveTask> turning right: target Deg: 90.0 curDeg: -30.3  diff: 120.3
DriveTask> turning right: target Deg: 90.0 curDeg: -30.6  diff: 120.6
DriveTask> turning right: target Deg: 90.0 curDeg: -31.3  diff: 128.5
DriveTask> turning right: target Deg: 90.0 curDeg: -38.9  diff: 128.9
DriveTask> turning right: target Deg: 90.0 curDeg: -39.4  diff: 129.4
DriveTask> turning right: target Deg: 90.0 curDeg: -39.8  diff: 129.8
DriveTask> turning right: target Deg: 90.0 curDeg: -40.1  diff: 130.1
DriveTask> turning right: target Deg: 90.0 curDeg: -40.5  diff: 134.4
DriveTask> turning right: target Deg: 90.0 curDeg: -44.7  diff: 134.7
DriveTask> turning right: target Deg: 90.0 curDeg: -45.1  diff: 135.1
DriveTask> turning right: target Deg: 90.0 curDeg: -45.5  diff: 135.5
DriveTask> turning right: target Deg: 90.0 curDeg: -45.8  diff: 135.8
DriveTask> turning right: target Deg: 90.0 curDeg: -46.3  diff: 142.5
DriveTask> turning right: target Deg: 90.0 curDeg: -52.9  diff: 142.9
DriveTask> turning right: target Deg: 90.0 curDeg: -53.3  diff: 143.3
DriveTask> turning right: target Deg: 90.0 curDeg: -53.7  diff: 143.7
DriveTask> turning right: target Deg: 90.0 curDeg: -54.0  diff: 144.0
DriveTask> turning right: target Deg: 90.0 curDeg: -54.3  diff: 151.4
DriveTask> turning right: target Deg: 90.0 curDeg: -61.7  diff: 151.7
DriveTask> turning right: target Deg: 90.0 curDeg: -62.1  diff: 152.1
DriveTask> turning right: target Deg: 90.0 curDeg: -62.5  diff: 152.5
DriveTask> turning right: target Deg: 90.0 curDeg: -62.9  diff: 152.9
DriveTask> turning right: target Deg: 90.0 curDeg: -63.4  diff: 162.9
DriveTask> turning right: target Deg: 90.0 curDeg: -73.2  diff: 163.2
DriveTask> turning right: target Deg: 90.0 curDeg: -73.7  diff: 163.7
DriveTask> turning right: target Deg: 90.0 curDeg: -74.0  diff: 164.0
DriveTask> turning right: target Deg: 90.0 curDeg: -74.3  diff: 164.3
DriveTask> turning right: target Deg: 90.0 curDeg: -74.8  difning right: target Deg: 90.0 curDeg: -86.8  diff: 176.8
DriveTask> turning right: target Deg: 90.0 curDeg: -87.2  diff: 177.2
DriveTask> turning right: target Deg: 90.0 curDeg: -87.6  diff: 177.6
DriveTask> turning right: target Deg: 90.0 curDeg: -88.0  diff: 178.0
DriveTask> turning right: target Deg: 90.0 curDeg: -88.3  dg: -114.3  diff: 204.3
DriveTask> turning right: targetg: -120.4  diff: 210.4
DriveTask> turning right: target Deg: 90.0 curDeg: -120.9  diff: 210.9
DriveTask> turning right: target Deg: 90.0 curDeg: -121.3  diff: 211.3
DriveTask> turning right: target Deg: 90.0 curDeg: -121.6  diff: 211.6
DriveTask> turning right: target Deg: 90.0 curDeg: -122.0  diff: 212.0
DriveTask> turning right: target Deg: 90.0 g: -133.0  diff: 223.0
DriveTask> turning right: target Deg: 90.0 curDeg: -133.4  diff: 223.4
DriveTask> turning right: target Deg: 90.0 curDeg: -133.8  diff: 223.8
DriveTask> turning right: target Deg: 90.0 curDeg: -134.1  diff: 224.1
DriveTask> turning right: target Deg: 90.0 curDeg: -134.4  diff: 224.4
DriveTask> turning right: target Deg: 90.0 g: -142.8  diff: 232.8
DriveTask> turning right: target Deg: 90.0 curDeg: -143.3  diff: 233.3
DriveTask> turning right: target Deg: 90.0 curDeg: -143.6  diff: 233.6
DriveTask> turning right: target Deg: 90.0 curDeg: -144.0  diff: 234.0
DriveTask> turning right: target Deg: 90.0 curDeg: -144.4  diff: 234.4
DriveTask> turning right: target Deg: 90.0 g: -150.3  diff: 240.3
DriveTask> turning right: target Deg: 90.0 curDeg: -150.8  diff: 240.8
DriveTask> turning right: target Deg: 90.0 curDeg: -151.1  diff: 241.1
DriveTask> turning right: target Deg: 90.0 curDeg: -151.4  diff: 241.4
DriveTask> turning right: target Deg: 90.0 curDeg: -151.9  diff: 241.9
DriveTask> turning right: target Deg: 90.0 g: -156.8  diff: 246.8
DriveTask> turning right: target Deg: 90.0 curDeg: -157.3  diff: 247.3
DriveTask> turning right: target Deg: 90.0 curDeg: -157.7  diff: 247.7
DriveTask> turning right: target Deg: 90.0 curDeg: -158.0  diff: 248.0
DriveTask> turning right: target Deg: 90.0 curDeg: -158.4  diff: 248.4
DriveTask> turning right: target Deg: 90.0 g: -163.0  diff: 253.0
DriveTask> turning right: target Deg: 90.0 curDeg: -163.3  diff: 253.3
DriveTask> turning right: target Deg: 90.0 curDeg: -163.7  diff: 253.7
DriveTask> turning right: target Deg: 90.0 curDeg: -164.1  diff: 254.1
DriveTask> turning right: target Deg: 90.0 curDeg: -164.4  diff: 254.4
DriveTask> turning right: target Deg: 90.0 g: -169.4  diff: 259.4
DriveTask> turning right: target Deg: 90.0 curDeg: -169.8  diff: 259.8
DriveTask> turning right: target Deg: 90.0 curDeg: -170.2  diff: 260.2
DriveTask> turning right: target Deg: 90.0 curDeg: -170.6  diff: 260.6
DriveTask> turning right: target Deg: 90.0 curDeg: -170.9  diff: 260.9
DriveTask> turning right: target Deg: 90.0 g: -175.2  diff: 265.2
DriveTask> turning right: target Deg: 90.0 curDeg: -175.6  diff: 265.6
DriveTask> turning right: target Deg: 90.0 curDeg: -175.9  diff: 265.9
DriveTask> turning right: target Deg: 90.0 curDeg: -176.4  diff: 266.4
DriveTask> turning right: target Deg: 90.0 curDeg: -176.8  diff: 266.8
DriveTask> turning right: target Deg: 90.0 g: -188.2  diff: 278.2
DriveTask> turning right: target Deg: 90.0 curDeg: -188.6  diff: 278.6
DriveTask> turning right: target Deg: 90.0 curDeg: -189.1  diff: 279.1
DriveTask> turning right: target Deg: 90.0 curDeg: -189.5  diff: 279.5
DriveTask> turning right: target Deg: 90.0 curDeg: -189.8  diff: 279.8
DriveTask> turning right: target Deg: 90.0 g: -196.4  diff: 286.4
DriveTask> turning right: target Deg: 90.0 curDeg: -196.8  diff: 286.8
DriveTask> turning right: target Deg: 90.0 curDeg: -197.2  diff: 287.2
DriveTask> turning right: target Deg: 90.0 curDeg: -197.7  diff: 287.7
DriveTask> turning right: target Deg: 90.0 curDeg: -198.1  diff: 288.1
DriveTask> turning right: target Deg: 90.0 g: -209.4  diff: 299.4
DriveTask> turning right: target Deg: 90.0 curDeg: -209.8  diff: 299.8
DriveTask> turning right: target Deg: 90.0 curDeg: -210.2  diff: 300.2
DriveTask> turning right: target Deg: 90.0 curDeg: -210.6  diff: 300.6
DriveTask> turning right: target Deg: 90.0 curDeg: -211.0  diff: 301.0
DriveTask> turning right: target Deg: 90.0 g: -218.3  diff: 308.3
DriveTask> turning right: target Deg: 90.0 curDeg: -218.7  diff: 308.7
g: -245.5  diff: 335.5
DriveTask> turning right: targetg: -254.4  diff: 344.4
DriveTask> turning right: target Deg: 90.0 curDeg: -254.8  diff: 344.8
DriveTask> turning right: target Deg: 90.0 curDeg: -255.1  diff: 345.1
DriveTask> turning right: target Deg: 90.0 curDeg: -255.4  diff: 345.4
DriveTask> turning right: target Deg: 90.0 curDeg: -255.9  diff: 345.9
DriveTask> turning right: target Deg: 90.0 g: -263.2  diff: 353.2
DriveTask> turning right: target Deg: 90.0 curDeg: -263.6  diff: 353.6
DriveTask> turning right: target Deg: 90.0 curDeg: -264.2  diff: 354.2
DriveTask> turning right: target Deg: 90.0 curDeg: -264.5  diff: 354.5
DriveTask> turning right: target Deg: 90.0 curDeg: -264.9  diff: 354.9
DriveTask> turning right: target Deg: 90.0 g: -273.0  diff: 363.0
DriveTask> turning right: target Deg: 90.0 curDeg: -273.4  diff: 363.4
DriveTask> turning right: target Deg: 90.0 curDeg: -273.8  diff: 363.8
DriveTask> turning right: target Deg: 90.0 curDeg: -274.1  diff: 364.1
DriveTask> turning right: target Deg: 90.0 curDeg: -274.6  diff: 364.6
DriveTask> turning right: target Deg: 90.0 g: -288.7  diff: 378.7
DriveTask> turning right: target Deg: 90.0 curDeg: -289.0  diff: 379.0
DriveTask> turning right: target Deg: 90.0 curDeg: -289.5  diff: 379.5
DriveTask> turning right: target Deg: 90.0 curDeg: -289.9  diff: 379.9
DriveTask> turning right: target Deg: 90.0 curDeg: -290.2  diff: 380.2
DriveTask> turning right: target Deg: 90.0 g: -297.2  diff: 387.2
DriveTask> turning right: target Deg: 90.0 curDeg: -297.6  diff: 387.6
DriveTask> turning right: target Deg: 90.0 curDeg: -297.9  diff: 387.9
DriveTask> turning right: target Deg: 90.0 curDeg: -298.3  diff: 388.3
DriveTask> turning right: target Deg: 90.0 curDeg: -298.7  diff: 388.7
DriveTask> turning right: target Deg: 90.0 g: -312.3  diff: 402.3
DriveTask> turning right: target Deg: 90.0 curDeg: -312.7  diff: 402.7
DriveTask> turning right: target Deg: 90.0 curDeg: -313.1  diff: 403.1
DriveTask> turning right: target Deg: 90.0 curDeg: -313.5  diff: 403.5
DriveTask> turning right: target Deg: 90.0 curDeg: -313.9  diff: 403.9
DriveTask> turning right: target Deg: 90.0 curDeg: -314.3  diff: 404.3
DriveTask> turning right: target Deg: 90.0 curDeg: -314.7  diff: 404.7
DriveTask> turning right: target Deg: 90.0 curDeg: -315.0  diff: 405.0
DriveTask> turning right: target Deg: 90.0 curDeg: -315.3  diff: 405.3
DriveTask> turning right: target Deg: 90.0 curDeg: -315.8  diff: 405.8
DriveTask> turning right: target Deg: 90.0 curDeg: -316.2  diff: 406.2
DriveTask> turning right: target Deg: 90.0 curDeg: -316.6  diff: 406.6
DriveTask> turning right: target Deg: 90.0 curDeg: -317.0  diff: 407.0
DriveTask> turning right: target Deg: 90.0 curDeg: -317.3  diff: 407.3
DriveTask> turning right: target Deg: 90.0 curDeg: -317.7  diff: 407.7
DriveTask> turning right: target Deg: 90.0 curDeg: -318.1  diff: 408.1
DriveTask> turning right: target Deg: 90.0 curDeg: -318.5  diff: 408.5
DriveTask> turning right: target Deg: 90.0 curDeg: -318.8  diff: 408.8
DriveTask> turning right: target Deg: 90.0 curDeg: -319.4  diff: 409.4
DriveTask> turning right: target Deg: 90.0 curDeg: -319.7  diff: 409.7
DriveTask> turning right: target Deg: 90.0 curDeg: -320.1  diff: 410.1
DriveTask> turning right: target Deg: 90.0 curDeg: -320.4  diff: 410.4
DriveTask> turning right: target Deg: 90.0 curDeg: -320.8  diff: 410.8
DriveTask> turning right: target Deg: 90.0 curDeg: -321.2  diff: 411.2
DriveTask> turning right: target Deg: 90.0 curDeg: -321.6  diff: 411.6
DriveTask> turning right: target Deg: 90.0 curDeg: -321.9  diff: 411.9
DriveTask> turning right: target Deg: 90.0 curDeg: -322.5  diff: 412.5
DriveTask> turning right: target Deg: 90.0 curDeg: -322.9  diff: 412.9
DriveTask> turning right: target Deg: 90.0 curDeg: -323.2  diff: 413.2
DriveTask> turning right: target Deg: 90.0 curDeg: -323.7  diff: 413.7
DriveTask> turning right: target Deg: 90.0 curDeg: -324.1  diff: 414.1
DriveTask> turning right: target Deg: 90.0 curDeg: -324.4  diff: 414.4
DriveTask> turning right: target Deg: 90.0 curDeg: -324.8  diff: 414.8
DriveTask> turning right: target Deg: 90.0 curDeg: -325.2  diff: 415.2
DriveTask> turning right: target Deg: 90.0 curDeg: -325.5  diff: 415.5
DriveTask> turning right: target Deg: 90.0 curDeg: -326.0  diff: 416.0
DriveTask> turning right: target Deg: 90.0 curDeg: -326.4  diff: 416.4
DriveTask> turning right: target Deg: 90.0 curDeg: -326.7  diff: 416.7
DriveTask> turning right: target Deg: 90.0 curDeg: -327.1  diff: 417.1
DriveTask> turning right: target Deg: 90.0 curDeg: -327.5  diff: 417.5
DriveTask> turning right: target Deg: 90.0 curDeg: -327.8  diff: 417.8
DriveTask> turning right: target Deg: 90.0 curDeg: -328.3  diff: 418.3
DriveTask> turning right: target Deg: 90.0 curDeg: -328.7  diff: 418.7
DriveTask> turning right: target Deg: 90.0 curDeg: -329.1  diff: 419.1
DriveTask> turning right: target Deg: 90.0 curDeg: -329.4  diff: 419.4
DriveTask> turning right: target Deg: 90.0 curDeg: -329.8  diff: 419.8
DriveTask> turning right: target Deg: 90.0 curDeg: -330.2  diff: 420.2
DriveTask> turning right: target Deg: 90.0 curDeg: -330.5  diff: 420.5
DriveTask> turning right: target Deg: 90.0 curDeg: -331.0  diff: 421.0
DriveTask> turning right: target Deg: 90.0 curDeg: -331.4  diff: 421.4
DriveTask> turning right: target Deg: 90.0 curDeg: -331.6  diff: 421.6
DriveTask> turning right: target Deg: 90.0 curDeg: -332.0  diff: 422.0
DriveTask> turning right: target Deg: 90.0 curDeg: -332.5  diff: 422.5
DriveTask> turning right: target Deg: 90.0 curDeg: -332.8  diff: 422.8
DriveTask> turning right: target Deg: 90.0 curDeg: -333.3  diff: 423.3
DriveTask> turning right: target Deg: 90.0 curDeg: -333.6  diff: 423.6
DriveTask> turning right: target Deg: 90.0 curDeg: -334.0  diff: 424.0
