initializing Gyro
gyro>mux calibration
Initializing IR
initializing EOPD Down
initializing Ultrasonic
initialzing Light Sensor
MUX> Setting Light On
initializing EOPD Forward
Starting from parking zone
Going to start from parking zone
MOTORMoveToTarget> target: 5666 > current: 0
MOTORMoveToTarget> power: 54 > pos: 5666
Initial US value: 255
Lift Moving: target: 5666 cur: 0
DriveToUSValue: dist(cm): 255 targ: 150 > drive dist(ticks): 0  elapsed: 38
Lift Moving: target: 5666 cur: 0
DriveToUSValue: dist(cm): 255 targ: 150 > drive dist(ticks): 0  elapsed: 59
Lift Moving: target: 5666 cur: 1
DriveToUSValue: dist(cm): 255 targ: 150 > drive dist(ticks): 0  elapsed: 79
Lift Moving: target: 5666 cur: 17
DriveToUSValue: dist(cm): 255 targ: 150 > drive dist(ticks): 5  elapsed: 97
Lift Moving: target: 5666 cur: 27
DriveToUSValue: dist(cm): 255 targ: 150 > drive dist(ticks): 11  elapsed: 116
Lift Moving: target: 5666 cur: 48
DriveToUSValue: dist(cm): 255 targ: 150 > drive dist(ticks): 22  elapsed: 134
Lift Moving: target: 5666 cur: 58
DriveToUSValue: dist(cm): 255 targ: 150 > drive dist(ticks): 39  elapsed: 151
Lift Moving: target: 5666 cur: 67
DriveToUSValue: dist(cm): 255 targ: 150 > drive dist(ticks): 43  elapsed: 170
Lift Moving: target: 5666 cur: 81
DriveToUSValue: dist(cm): 255 targ: 150 > drive dist(ticks): 65  elapsed: 189
Lift Moving: target: 5666 cur: 107
DriveToUSValue: dist(cm): 255 targ: 150 > drive dist(ticks): 81  elapsed: 209
Lift Moving: target: 5666 cur: 138
DriveToUSValue: dist(cm): 255 targ: 150 > drive dist(ticks): 105  elapsed: 228
Lift Moving: target: 5666 cur: 155
DriveToUSValue: dist(cm): 255 targ: 150 > drive dist(ticks): 118  elapsed: 248
Lift Moving: target: 5666 cur: 194
DriveToUSValue: dist Moving: target: 5666 cur: 226
DriveToUSValue: dist(cm): 255 targ: 150 > drive dist(ticks): 168  elapsed: 288
Lift Moving: target: 5666 cur: 241
DriveToUSValue: dist(cm): 255 targ: 150 > drive dist(ticks): 199  elapsed: 310
Lift Moving: target: 5666 cur: 286
DriveToUSValue: dist(cm): 255 targ: 150 > drive dist(ticks): 209  elapsed: 329
Lift Moving: target: 5666 cur: 307
DriveToUSValue: dist(cm): 255 targ: 150 > drive dist(ticks): 241  elapsed: 348
Lift Moving: target: 5666 cur: 346
DriveToUSValue: dist(cm): 255 targ: 150 > drive dist(ticks): 263  elapsed: 369
Lift Moving: target: 5666 cur: 366
DriveToUSValue: dist(cm): 255 targ: 150 > drive dist(ticks): 293  elapsed: 389
Lift Moving: target: 5666 cur: 412
DriveToUSValue: dist(cm): 255 targ: 150 > drive dist(ticks): 319  elapsed: 409
Lift Moving: target: 5666 cur: 453
DriveToUSValue: dist(cm): 255 targ: 150 > drive dist(ticks): 362  elapsed: 435
Lift Moving: target: 5666 cur: 502
DriveToUSValue: dist(cm): 255 targ: 150 > drive dist(ticks): 369  elapsed: 455
Lift Moving: target: 5666 cur: 534
DriveToUSValue: dist(cm): 255 targ: 150 > drive dist(ticks): 406  elapsed: 474
Lift Moving: target: 5666 cur: 556
DriveToUSValue: dist(cm): 255 targ: 150 > drive dist(ticks): 436  elapsed: 495
Lift Moving: target: 5666 cur: 602
DriveToUSValue: dist(cm): 255 targ: 150 > drive dist(ticks): 443  elapsed: 515
Lift Moving: target: 5666 cur: 649
DriveToUSValue: dist(cm): 255 targ: 150 > drive dist(ticks): 474  elapsed: 533
Lift Moving: target: 5666 cur: 677
DriveToUSValue: dist(cm): 255 targ: 150 > drive dist(ticks): 504  elapsed: 556
Lift Moving: target: 5666 cur: 723
DriveToUSValue: dist(cm): 255 targ: 150 > drive dist(ticks): 529  elapsed: 579
Lift Moving: target: 5666 cur: 773
DriveToUSalue: dist(cm): 255 targ: 150 > drive dist(ticks): 550  elapsed: 596
Lift Moving: target: 5666 cur: 802
DriveToUSValue: dist(cm): 255 targ: 150 > drive dist(ticks): 561  elapsed: 615
Lift Moving: target: 5666 cur: 826
DriveToUSValue: dist(cm): 255 targ: 150 > drive dist(ticks): 588  elapsed: 636
Lift Moving: target: 5666 cur: 871
DriveToUSValue: di 255 targ: 150 > drive dist(ticks): 652  elapsed: 694
Lift Moving: target: 5666 cur: 966
DriveToUSValue: dist(cm): 255 targ: 150 > drive dist(ticks): 665  elapsed: 712
Lift Moving: target: 5666 cur: 1009
DriveToUSValue: dist(cm): 255 targ: 150 > drive dist(ticks): 683  elapsed: 732
Lift Moving: target: 5666 cur: 1037
DriveToUSValue: dist(cm): 255 tst(ticks): 786  elapsed: 832
Lift Moving: target: 5666 cur: 1226
DriveToUSValue: dist(cm): 255 targ: 150 > drive dist(ticks): 812  elapsed: 851
Lift Moving: target: 5666 cur: 1271
DriveToUSValue: dist(cm): 255 targ: 150 > drive dist(ticks): 818  elapsed: 870
Lift Moving: target: 5666 cur: 1301
DriveToUSValue: dist(cm): 255 targ: 150 > drive dist(ti(cm): 255 targ: 150 > drive dist(ticks): 874  elapsed: 928
Lift Moving: target: 5666 cur: 1395
DriveToUSValue: dist(cm): 255 targ: 150 > drive dist(ticks): 898  elapsed: 948
Lift Moving: target: 5666 cur: 1442
DriveToUSValue: dist(cm): 255 targ: 150 > drive dist(ticks): 919  elapsed: 967
Lift Moving: target: 5666 cur: 1488
DriveToUSValue: dist(cm): 255 targ: 150 > drive dist(ticks): 946  elapsed: 988
Lift Moving: target: 5666 cur: 1508
DriveToUSValue: dist(cm): 255 targ: 150 > drive dist(ticks): 966  elapsed: 1009
Lift Moving: target: 5666 cur: 1555
DriveToUSValue: dist(cm): 255 targ: 150 > drive dist(ticks): 973  elapsed: 1027
Lift Moving: target: 5666 cur: 1583
DriveToUSValue: dist(cm): 25 150 > drive dist(ticks): 1006  elapsed: 1051
Lift Moving: target: 5666 cur: 1625
DriveToUSValue: dist(cm): 255 targ: 150 > drive dist(ticks): 1030  elapsed: 1070
Lift Moving: target: 5666 cur: 1655
DriveToUSValue: dist(cm): 255 targ: 150 > drive dist(ticks): 1060  elapsed: 1090
Lift Moving: target: 5666 cur: 1701
DriveToUSValue: lapsed: 1380
Lift Moving: target: 5666 cur: 2195
DriveTt gyro: 0.00 	Target gyro: -45.00
Lift Moving: target: 5666 cur: 2293
BG arm pos: 0
TURNING LEFT  - Current gyro: 0.04 	Target gyro: -45.00
Lift Moving: target: 5666 cur: 2335
BG arm pos: -1
TURNING LEFT  - Current gyro: -0.06 	Target gyro: -45.00
Lift Moving: target: 5666 cur: 2371
BG arm pos: -12
TURNING LEFT  - Current gyro: -0.42 	Target gyro: rm pos: -25
TURNING LEFT  - Current gyro: -0.96 	Target gyro: -45.00
Lift Moving: target: 5666 cur: 2471
BG arm pos: -25
TURNING LEFT  - Current gyro: -1.14 	Target gyro: -45.00
Lift Moving: target: 5666 cur: 2491
BG arm pos: -28
TURNING LEFT  - Current gyro: -1.50 	Target gyro: -45.00
Lift Moving: target: 5666 cur: 2542
BG arm pos: -35
TURNING LEFT  - Current gyro: -1.96 	Target gyro: -45.00
Lift Moving: target: 5666 cur: 2574
BG arm pos: -43
TURNING LEFT  - Current gyro: -2.46 	Target gyro: -45.00
Lift Moving: target: 5666 cur: 2605
BG arm pos: -47
TURNING LEFT  - Current gyro: -2.82 	Target gyro: -45.00
Lift Moving: target: 5666 cur: 2641
BG arm pos: -57
TURNING LEFT  - Current gyro: -3.33 	Target gyro: -45.00
Lift Moving: target: 5666 cur: 2665
BG arm pos: -70
TURNING LEFT  - Current gyro: -3.86 	Target gyro: -45.00
Lift Moving: target: 5666 cur: 2703
BG arm pos: -77
TURNING LEFT  - Current gyro: -4.46 	Target gyro: -45.00
Lift Moving: target: 5666 cur: 2729
BG arm pos: -84
TURNING LEFT  - Current gyro: -5.05 	Target gyro: -45.00
Lift Moving: target: 5666 cur: 2754
BG arm pos: -92
TURNING LEFT  - Current gyro: -5.66 	Target gyro: -45.00
Lift Moving: target: 5666 cur: 2793
BG arm pos: -109
TURNING LEFT  - Current gyro: -6.29 	Target gyro: -45.00
Lift Moving: target: 5666 cur: 2811
BG arm pos: -128
TURNING LEFT  - Current gyro: -7.07 	Target gyro: -45.00
Lift Moving: target: 5666 cur: 2851
BG arm pos: -138
TURNING LEFT  - Current gyro: -7.75 	Target gyro: -45.00
Lift Moving: target: 5666 cur: 2870
BG arm pos: -159
TURNING LEFT  - Current gyro: -8.32 	Target gyro: -45.00
Lift Moving: target: 5666 cur: 2915
BG arm pos: -170
TURNING LEFT  - Current gyro: -8.86 	Target gyro: -45.00
Lift Moving: target: 5666 cur: 2932
BG arm pos: -205
TURNING LEFT  - Current gyro: -9.54 	Target gyro: -45.00
Lift Moving: target: 5666 cur: 2977
BG arm pos: -224
TURNING LEFT  - Current gyro: -10.35 	Target gyro: -45.00
Lift Moving: target: 5666 cur: 2998
BG arm pos: -256
TURNING LEFT  - Current gyro: -11.15 	Target gyro: -45.00
Lift Moving: target: 5666 cur: 3035
BG arm pos: -286
TURNING LEFT  - Current gyro: -11.84 	Target gyro: -45.00
Lift Moving: target: 5666 cur: 3069
BG arm pos: -300
TURNING LEFT  - Current gyro: -12.53 	Target gyro: -45.00
Lift Moving: target: 5666 cur: 3087
BG arm pos: -335
TURNING LEFT  - Current gyro: -13.26 	Target gyro: -45.00
Lift Moving: target: 5666 cur: 3109
BG arm pos: -357
TURNING LEFT  - Currentget gyro: -45.00
Lift Moving: target: 5666 cur: 3210
BG arm pos: -433
TURNING LEFT  - Current gyro: -15.96 	Target gyro: -45.00
Lift Moving: target: 5666 cur: 3249
BG arm pos: -469
TURNING LEFT  - Current gyro: -16.48 	Target gyro: -45.00
Lift Moving: target: 5666 cur: 3267
TURNING LEFT  - Current gyro: -17.08 	Target gyro: -45.00
Lift Moving: targ LEFT  - Current gyro: -18.36 	Target gyro: -45.00
Lift Moving: target: 5666 cur: 3353
TURNING LEFT  - Current gyro: -19.06 	Target gyro: -45.00
Lift Moving: target: 5666 cur: 3392
TURNING LEFT  - Current gyro: -19.56 	Target gyro: -45.00
Lift Moving: target: 5666 cur: 3411
TURNING LEFT  - Current gyro: -20.18 	Target gyro: -45.00
Lift Moving: target: 5666 cur: 3427
TURNING LEFT  - Current gyro: -20.83 	Target gyro: -45.00
Lift Moving: target: 5666 cur: 3465
TURNING LEFT  - Current gyro: -21.44 	Target gyro: -45.00
Lift Moving: target: 5666 cur: 3484
TURNING LEFT  - Current gyro: -21.95 	Target gyro: -45.00
Lift Moving: target: 5666 cur: 3520
TURNING LEFT  - Current gyro: -22.38 	Target gyro: -45.00
Lift Moving: target: 5666 cur: 3541
TURNING LEFT  - Current gyro: -22.99 	Target gyrotarget: 5666 cur: 3796
TURNING LEFT  - Current gyro: -2arget: 5666 cur: 3863
TURNING LEFT  - Current gyro: -29.90 	Target gyro: -45.00
Lift Moving: target: 5666 cur: 3881
TURNING LEFT  - Current gyro: -30.60 	Target gyro: -45.00
Lift Moving: target: 5666 cur: 3917
TURNING LEFT  - Current gyro: -31.11 	Target gyro: -45.00
Lift Moving: target: 5666 cur: 3938
TURNING LEFT  - Current gyro: -31.61 	Target gyro: -45.00
Lift Moving: target: 5666 cur: 3957
TURNING LEFT  - Current gyro: -32.12 	Target gyro: -45.00
Lift Moving: target: 5666 cur: 3997
TURNING LEFT  - Current gyro: -32.83 	Target gyro: -45.00
Lift Moving: target: 5666 cur: 4015
TURNING LEFT  - Current gyro: -33.56 	Target gyro: -45.00
Lift Moving: target: 5666 cur: 4040
TURNING LEFT  - Current gyro: -34.18 	Target gyro: -45.00
Lift Moving: target: 5666 cur: 4063
TURNING LEFT  - Current gyro: -34.83 	Target gyro: -45.00
Lift Moving: target: 5666 cur: 4099
TURNING LEFT  - Current gyro: -35.39 	Target gyro: -45.00
Lift Moving: target: 5666 cur: 4115
TURNING LEFT  - Current gyro: -35.95 	Target gyro: -45.00
Lift Moving: target: 5666 cur: 4150
TURNING LEFT  - Current gyro: -36.45 	Target gyro: -45.00
Lift Moving: target: 5666 cur: 4169
TURNING LEFT  - Current gyro: -36.97 	Target gyro: -45.00
Lift Moving: target: 5666 cur: 4207
TURNING LEFT  - Current gyro: -37.72 	Target gyro: -45.00
Lift Moving: target: 5666 cur: 4222
TURNING LEFT  - Current gyro: -38.42 	Target gyro: -45.00
Lift Moving: target: 5666 cur: 4243
TURNING LEFT  - Current gyro: -39.07 	Target gyro: -45.00
Lift Moving: target: 5666 cur: 4278
TURNING LEFT  - Current gyro: -39.58 	Target gyro: -45.00
Lift Moving: target: 5666 cur: 4294
TURNING LEFT  - Current gyro: -40.24 	Target gyro: -45.00
Lift Moving: target: 5666 cur: 4324
TURNING LEFT  - Current gyro: -40.85 	Target gyro: -45.00
Lift Moving: target: 5666 cur: 4342
TURNING LEFT  - Current gyro: -41.43 	Target gyro: -45.00
Lift Moving: target: 5666 cur: 4357
TURNING LEFT  - Current gyro: -41.94 	Target gyro: -45.00
Lift Moving: target: 5666 cur: 4395
TURNING LEFT  - Current gyro: -42.40 	Target gyro: -45.00
Lift Moving: target: 5666 cur: 4413
TURNING LEFT  - Current gyro: -42.90 	Target gyro: -45.00
Lift Moving: target: 5666 cur: 4437
TURNING LEFT  - Current gyro: -43.40 	Target gyro: -45.00
Lift Moving: target: 5666 cur: 4473
TURNING LEFT  - Current gyro: -44.14 	Target gyro: -45.00
Lift Moving: target: 5666 cur: 4490
TURNING LEFT  - Current gyro: -44.65 	Target gyro: -45.00
Lift Moving: target: 5666 cur: 4523
TURNING LEFT  - Current gyro: -45.12 	Target gyro: -45.00
Stopping DriveTrain
Initial IR value: -2147483648
Lift Moving: target: 5666 cur: 4557
Current IR value: 5	Target IR value: 9
Lift Moving: target: 5666 cur: 4602
Current IR value: 5	Target IR value: 9
Lift Moving: target: 5666 cur: 4642
Current IR value: 5	Target IR value: 9
Lift Moving: target: 5666 cur: 4677
Current IR value: 5	Target IR value: 9
Lift Moving: target: 5666 cur: 4703
Current IR value: 5	Target IR value: 9
Lift Moving: target: 5666 cur: 4729
Current IR value: 5	Target IR value: 9
Lift Moving: target: 5666 cur: 4766
Current IR value: 5	Target IR value: 9
Lift Moving: target: 5666 cur: 4799
Current IR value: 5	Target IR value: 9
Lift Moving: target: 5666 cur: 4855
Current IR value: 5	Target IR value: 9
Lift Moving: target: 5666 cur: 4887
Current IR value: 5	Target IR value: 9
Lift Moving: target: 5666 cur: 4921
Current IR value: 5	Target IR value: 9
Lift Moving: target: 5666 cur: 4936
Current IR value: 5	Target IR value: 9
Lift Moving: target: 5666 cur: 4987
Current IR value: 5	Target IR value: 9
Lift Moving: target: 5666 cur: 5022
Current IR value: 6	Target IR value: 9
Lift Moving: target: 5666 cur: 5053
Current IR value: 6	Target IR value: 9
Lift Moving: target: 5666 cur: 5101
Current IR value: 7	Target IR value: 9
Lift Moving: target: 5666 cur: 5118
Current IR value: 7	Target IR value: 9
Lift Moving: target: 5666 cur: 5158
Current IR value: 7	Target IR value: 9
Lift Moving: target: 5666 cur: 5190
Current IR value: 7	Target IR value: 9
Lift Moving: target: 5666 cur: 5225
Current IR value: 7	Target IR value: 9
Lift Moving: target: 5666 cur: 5269
Current IR value: 7	Target IR value: 9
Lift Moving: target: 5666 cur: 5299
Current IR value: 7	Target IR value: 9
Lift Moving: target: 5666 cur: 5322
Current IR value: 7	Target IR value: 9
Lift Moving: target: 5666 cur: 5366
Current IR value: 7	Target IR value: 9
Lift Moving: target: 5666 cur: 5404
Current IR value: 7	Target IR value: 9
Lift Moving: target: 5666 cur: 5435
Current IR value: 7	Target IR value: 9
Lift Moving: target: 5666 cur: 5467
Current IR value: 7	Target IR value: 9
Lift Moving: target: 5666 cur: 5509
Current IR value: 7	Target IR value: 9
Lift Moving: target: 5666 cur: 5543
Current IR value: 7	Target IR value: 9
Lift Moving: target: 5666 cur: 5580
Current IR value: 7	Target IR value: 9
Lift Moving: target: 5666 cur: 5614
Current IR value: 7	Target IR value: 9
Lift Moving: target: 5666 cur: 5646
Current IR value: 7	Target IR value: 9
Current IR value: 7	Target IR value: 9
Current IR value: 7	Target IR value: 9
Current IR value: 7	Target IR value: 9
Current IR value: 7	Target IR value: 9
Current IR value: 7	Target IR value: 9
Current IR value: 7	Target IR value: 9
Current IR value: 7	Target IR value: 9
Current IR value: 7	Target IR value: 9
Current IR value: 7	Target IR value: 9
Current IR value: 7	Target IR value: 9
Current IR value: 7	Target IR value: 9
Current IR value: 7	Target IR value: 9
Current IR value: 7	Target IR value: 9
Current IR value: 7	Target IR value: 9
Current IR value: 7	Target IR value: 9
Current IR value: 7	Target IR value: 9
Current IR value: 6	Target IR value: 9
Current IR value: 6	Target IR value: 9
Current IR value: 6	Target IR value: 9
Current IR value: 6	Target IR value: 9
Current IR value: 9	Target IR value: 9
Stopping DriveTrain
Turning Right: 90.0 degrees  leftPower: 80  rightPower: -80
DriveTask> turning right: target Deg: 90.0 curDeg: -0.3  diff: 90.3
DriveTask> turning right: target Deg: 90.0 curDeg: -0.4  diff: 90.4
DriveTask> turning right: target Deg: 90.0 curDeg: -0.1  diff: 90.2
DriveTask> turning right: target Deg: 90.0 curDeg: 0.7  diff: 89.3
DriveTask> turning right: target Deg: 90.0 curDeg: 1.8  diff: 88.2
DriveTask> turning right: target Deg: 90.0 curDeg: 2.9  diff: 87.1
DriveTask> turning right: target Deg: 90.0 curDeg: 4.0  diff: 86.0
DriveTask> turning right: target Deg: 90.0 curDeg: 5.2  diff: 84.8
DriveTask> turning right: target Deg: 90.0 curDeg: 6.5  diff: 83.5
DriveTask> turning right: target Deg: 90.0 curDeg: 8.1  diff: 81.9
DriveTask> turning right: target Deg: 90.0 curDeg: 10.1  diff: 79.9
DriveTask> turning right: target Deg: 90.0 curDeg: 11.9  diff: 78.1
DriveTask> turning right: target Deg: 90.0 curDeg: 13.6  diff: 76.4
DriveTask> turning right: target Deg: 90.0 curDeg: 15.5  diff: 74.5
DriveTask> turning right: target Deg: 90.0 curDeg: 17.9  diff: 72.1
DriveTask> turning right: target Deg: 90.0 curDeg: 20.2  diff: 69.8
DriveTask> turning right: target Deg: 90.0 curDeg: 22.4  diff: 67.6
DriveTask> turning right: target Deg: 90.0 curDeg: 24.9  diff: 65.1
DriveTask> turning right: target Deg: 90.0 curDeg: 27.1  diff: 62.9
DriveTask> turning right: target Deg: 90.0 curDeg: 29.2  diff: 60.8
DriveTask> turning right: target Deg: 90.0 curDeg: 31.5  diff: 58.5
DriveTask> turning right: target Deg: 90.0 curDeg: 33.8  diff: 56.2
DriveTask> turning right: target Deg: 90.0 curDeg: 36.0  diff: 54.0
DriveTask> turning right: target Deg: 90.0 curDeg: 38.3  diff: 51.7
DriveTask> turning right: target Deg: 90.0 curDeg: 41.1  diff: 48.9
DriveTask> turning right: target Deg: 90.0 curDeg: 43.8  diff: 46.2
DriveTask> turning right: target Deg: 90.0 curDeg: 46.2  diff: 43.8
DriveTask> turning right: target Deg: 90.0 curDeg: 48.7  diff: 41.3
DriveTask> turning right: target Deg: 90.0 curDeg: 51.1  diff: 38.9
DriveTask> turning right: target Deg: 90.0 curDeg: 53.5  diff: 36.5
DriveTask> turning right: target Deg: 90.0 curDeg: 55.9  diff: 34.1
DriveTask> turning right: target Deg: 90.0 curDeg: 58.8  diff: 31.2
DriveTask> turning right: target Deg: 90.0 curDeg: 60.9  diff: 29.1
DriveTask> turning right: target Deg: 90.0 curDeg: 63.5  diff: 26.5
DriveTask> turning right: target Deg: 90.0 curDeg: 65.9  diff: 24.1
DriveTask> turning right: target Deg: 90.0 curDeg: 68.5  diff: 21.5
DriveTask> turning right: target Deg: 90.0 curDeg: 70.9  diff: 19.1
DriveTask> turning right: target Deg: 90.0 curDeg: 73.2  diff: 16.8
DriveTask> turning right: target Deg: 90.0 curDeg: 74.9  diff: 15.1
DriveTask> turning right: target Deg: 90.0 curDeg: 75.9  diff: 14.1
DriveTask> turning right: target Deg: 90.0 curDeg: 76.6  diff: 13.4
DriveTask> turning right: target Deg: 90.0 curDeg: 77.1  diff: 12.9
DriveTask> turning right: target Deg: 90.0 curDeg: 77.5  diff: 12.5
DriveTask> turning right: target Deg: 90.0 curDeg: 77.8  diff: 12.2
DriveTask> turning right: target Deg: 90.0 curDeg: 78.1  diff: 11.9
DriveTask> turning right: target Deg: 90.0 curDeg: 78.3  diff: 11.7
DriveTask> turning right: target Deg: 90.0 curDeg: 78.4  diff: 11.6
DriveTask> turning right: target Deg: 90.0 curDeg: 78.5  diff: 11.5
DriveTask> turning right: target Deg: 90.0 curDeg: 78.7  diff: 11.3
DriveTask> turning right: target Deg: 90.0 curDeg: 78.9  diff: 11.1
DriveTask> turning right: target Deg: 90.0 curDeg: 79.1  diff: 10.9
DriveTask> turning right: target Deg: 90.0 curDeg: 79.5  diff: 10.5
DriveTask> turning right: target Deg: 90.0 curDeg: 79.9  diff: 10.1
DriveTask> turning right: target Deg: 90.0 curDeg: 80.3  diff: 9.7
DriveTask> turning right: target Deg: 90.0 curDeg: 80.8  diff: 9.2
DriveTask> turning right: target Deg: 90.0 curDeg: 81.3  diff: 8.7
DriveTask> turning right: target Deg: 90.0 curDeg: 81.8  diff: 8.2
DriveTask> turning right: target Deg: 90.0 curDeg: 82.4  diff: 7.6
DriveTask> turning right: target Deg: 90.0 curDeg: 82.9  diff: 7.1
DriveTask> turning right: target Deg: 90.0 curDeg: 83.4  diff: 6.6
DriveTask> turning right: target Deg: 90.0 curDeg: 83.9  diff: 6.1
DriveTask> turning right: target Deg: 90.0 curDeg: 84.4  diff: 5.6
DriveTask> turning right: target Deg: 90.0 curDeg: 84.9  diff: 5.1
DriveTask> turning right: target Deg: 90.0 curDeg: 85.4  diff: 4.6
DriveTask> turning right: target Deg: 90.0 curDeg: 85.9  diff: 4.1
DriveTask> turning right: target Deg: 90.0 curDeg: 86.4  diff: 3.6
DriveTask> turning right: target Deg: 90.0 curDeg: 86.8  diff: 3.2
DriveTask> turning right: target Deg: 90.0 curDeg: 87.2  diff: 2.8
DriveTask> turning right: target Deg: 90.0 curDeg: 87.7  diff: 2.3
DriveTask> turning right: target Deg: 90.0 curDeg: 88.1  diff: 1.9
DriveTask> turning right: target Deg: 90.0 curDeg: 88.5  diff: 1.5
DriveTask> turning right: target Deg: 90.0 curDeg: 88.9  diff: 1.1
DriveTask> turning right: target Deg: 90.0 curDeg: 89.4  diff: 0.6
DriveTask> turning right: target Deg: 90.0 curDeg: 89.9  diff: 0.1
DriveTask> turning right: target Deg: 90.0 curDeg: 90.3  diff: -0.3
Stopping DriveTrain
UltraDrive: dist(cm): 19  drivetrain dist(ticks): 4  elapsed: 45
EOPDDrive: dist: 1.43  drivetrain dist(ticks): 0  timer: 23915
EOPDDrive: dist: 1.67  drivetrain dist(ticks): 0  timer: 23933
EOPDDrive: dist: 1.25  drivetrain dist(ticks): 4  timer: 23954
EOPDDrive: dist: 1.43  drivetrain dist(ticks): 15  timer: 23974
EOPDDrive: dist: 1.43  drivetrain dist(ticks): 24  timer: 23994
EOPDDrive: dist: 1.67  drivetrain dist(ticks): 29  timer: 24011
EOPDDrive: dist: 1.43  drivetrain dist(ticks): 32  timer: 24028
EOPDDrive: dist: 1.11  drivetrain dist(ticks): 37  timer: 24045
EOPDDrive: dist: 1.25  drivetrain dist(ticks): 47  timer: 24065
EOPDDrive: dist: 1.11  drivetrain dist(ticks): 47  timer: 24083
EOPDDrive: dist: 1.25  drivetrain dist(ticks): 59  timer: 24102
EOPDDrive: dist: 1.00  drivetrain dist(ticks): 67  timer: 24120
EOPDDrive: dist: 1.00  drivetrain dist(ticks): 72  timer: 24138
EOPDDrive: dist: 0.91  drivetrain dist(ticks): 80  timer: 24156
Stopping DriveTrain
Done Driving. Lift is stopped, we are done
Stopping DriveTrain
BallScorerMasterTubeToGoal Starting. LiftState: 4
MOTORMoveToTarget> target: 2009 > current: 0
MOTORMoveToTarget> power: 24 > pos: 2009
TubeReturnStopped> encoder value: 2016
TubeToGoal> tube is deployed, time to tip
MOTORMoveToTarget> target: 3058 > current: 2016
MOTORMoveToTarget> power: 19 > pos: 3058
TubeReturnStopped> encoder value: 3061
BallScorerTubeToGoal> Balls in Goal!
TubeToStowStarting
MOTORMoveToTarget> target: 0 > current: 3103
MOTORMoveToTarget> power: -30 > pos: 0
TUBETask> Stowing> difference in encoder values: 42
Stowing> Tube Return encoder value: 3103
TUBETask> Stowing> difference in encoder values: 0
TUBETask> Stowing> difference in encoder values: 0
TUBETask> Stowing> difference in encoder values: 0
TUBETask> Stowing> difference in encoder values: 0
TUBETask> Stowing> difference in encoder values: 0
TUBETask> Stowing> difference in encoder values: 15
Stowing> Tube Return encoder value: 3088
TUBETask> Stowing> difference in encoder values: 6
TUBETask> Stowing> difference in encoder values: 10
TUBETask> Stowing> difference in encoder values: 11
Stowing> Tube Return encoder value: 3077
TUBETask> Stowing> difference in encoder values: 2
TUBETask> Stowing> difference in encoder values: 2
TUBETask> Stowing> difference in encoder values: 4
TUBETask> Stowing> difference in encoder values: 4
TUBETask> Stowing> difference in encoder values: 6
TUBETask> Stowing> difference in encoder values: 6
TUBETask> Stowing> difference in encoder values: 12
Stowing> Tube Return encoder value: 3065
TUBETask> Stowing> difference in encoder values: 0
TUBETask> Stowing> difference in encoder values: 9
TUBETask> Stowing> difference in encoder values: 9
TUBETask> Stowing> difference in encoder values: 18
Stowing> Tube Return encoder value: 3047
TUBETask> Stowing> difference in encoder values: 0
TUBETask> Stowing> difference in encoder values: 10
TUBETask> Stowing> difference in encoder values: 10
TUBETask> Stowing> difference in encoder values: 15
Stowing> Tube Return encoder value: 3032
TUBETask> Stowing> difference in encoder values: 0
TUBETask> Stowing> difference in encoder values: 6
TUBETask> Stowing> difference in encoder values: 14
Stowing> Tube Return encoder value: 3018
TUBETask> Stowing> difference in encoder values: 10
TUBETask> Stowing> difference in encoder values: 10

TUBETask> Stowing> difference in encoder values: 31
St5
Stowing> Tube Return encoder value: 2517
TUBETask> Stowing> difference in encoder values: 15
Stowing> Tube Return encoder value: 2502
TUBETask> Stowing> difference in encoder values: 19
Stowing> Tube Return encoder value: 2483
TUBETask> Stowing> difference in encoder values: 34
Stowing> Tube Return encoder value: 2449
TUBETask> Stowing> differenc> Stowing> difference in encoder values: 0
TUBETask> Stowing> difference in encoder values: 15
Stowing> Tube Return encoder value: 2406
TUBETask> Stowing> difference in encoder values: 18
Stowing> Tube Return encoder value: 2388
TUBETask> Stowing> difference in encoder values: 17
Stowing> Tube Return encoder value: 2371
TUBETask> Stowing> differencr values: 21
Stowing> Tube Return encoder value: 2288
TUBETask> Stowing> difference in encoder values: 0
TUBETask> Stowing> difference in encoder values: 31
Stowing> Tube Return encoder value: 2257
TUBETask> Stowing> difference in encoder values: 0
TUBETask> Stowing> difference in encoder values: 17
Stowing> Tube Return encoder value: 2240
TUBETaskvalue: 2152
TUBETask> Stowing> difference in encoder values: 0
TUBETask> Stowing> difference in encoder values: 15
Stowing> Tube Return encoder value: 2137
TUBETask> Stowing> difference in encoder values: 16
Stowing> Tube Return encoder value: 2121
TUBETask> Stowing> difference in encoder values: 20
Stowing> Tube Return encoder value: 2101
TUBETaskvalue: 2035
TUBETask> Stowing> difference in encoder values: 19
Stowing> Tube Return encoder value: 2016
TUBETask> Stowing> difference in encoder values: 0
TUBETask> Stowing> difference in encoder values: 19
Stowing> Tube Return encoder value: 1997
TUBETask> Stowing> difference in encoder values: 0
TUBETask> Stowing> difference in encoder values: 1 0
TUBETask> Stowing> difference in encoder values: 15
Stowing> Tube Return encoder value: 1936
TUBETask> Stowing> difference in encoder values: 0
TUBETask> Stowing> difference in encoder values: 37
Stowing> Tube Return encoder value: 1899
TUBETask> Stowing> difference in encoder values: 0
TUBETask> Stowing> difference in encoder values: 28
Stowingr values: 14
Stowing> Tube Return encoder value: 1857
TUBETask> Stowing> difference in encoder values: 0
TUBETask> Stowing> difference in encoder values: 35
Stowing> Tube Return encoder value: 1822
TUBETask> Stowing> difference in encoder values: 0
TUBETask> Stowing> difference in encoder values: 15
Stowing> Tube Return encoder value: 1807
TUBETaskr values: 13
Stowing> Tube Return encoder value: 1794
TUBETask> Stowing> difference in encoder values: 12
Stowing> Tube Return encoder value: 1782
TUBETask> Stowing> difference in encoder values: 12
Stowing> Tube Return encoder value: 1770
TUBETask> Stowing> difference in encoder values: 0
TUBETask> Stowing> difference in encoder values: 17
Stowing 0
TUBETask> Stowing> difference in encoder values: 25
Stowing> Tube Return encoder value: 1728
TUBETask> Stowing> difference in encoder values: 0
TUBETask> Stowing> difference in encoder values: 12
Stowing> Tube Return encoder value: 1716
TUBETask> Stowing> difference in encoder values: 12
Stowing> Tube Return encoder value: 1704
TUBETask> Stowingr values: 24
Stowing> Tube Return encoder value: 1647
TUBETask> Stowing> difference in encoder values: 0
TUBETask> Stowing> difference in encoder values: 12
Stowing> Tube Return encoder value: 1635
TUBETask> Stowing> difference in encoder values: 11
Stowing> Tube Return encoder value: 1624
TUBETask> Stowing> difference in encoder values: 13
Stowing564
TUBETask> Stowing> difference in encoder values: 17
Stowing> Tube Return encoder value: 1547
TUBETask> Stowing> difference in encoder values: 17
Stowing> Tube Return encoder value: 1530
TUBETask> Stowing> difference in encoder values: 0
TUBETask> Stowing> difference in encoder values: 14
Stowing> Tube Return encoder value: 1516
TUBETask> Stowiner values: 0
TUBETask> Stowing> difference in encoder values: 16
Stowing> Tube Return encoder nce in encoder values: 11
Stowing> Tube Return encoder eturn encoder value: 890
TUBETask> Stowing> difference in encoder values: 0
TUBETask> Stowing> difference in encoder values: 13
Stowing> Tube Return encoder value: 877
TUBETask> Stowing> difference in encoder values: 9
TUBETask> Stowing> difference in encoder values: 23
Stowing> Tube Return encoder value: 854
TUBETask> Stowing> difference in encodence in encoder values: 18
Stowing> Tube Return encoder value: 697
TUBETask> Stowing> difference in encoder values: 0
TUBETask> Stowing> difference in encoder values: 19
Stowing> Tube Return encoder value: 678
TUBETask> Stowing> difference in encoder values: 0
TUBETask> Stowing> difference in encoder values: 13
Stowing> Tube Return encoder value: 66coder values: 0
TUBETask> Stowing> difference in encoder values: 30
Stowing> Tube Return encoder value: 595
TUBETask> Stowing> difference in encoder values: 0
TUBETask> Stowing> difference in encoder values: 13
Stowing> Tube Return encoder value: 582
TUBETask> Stowing> difference in encoder values: 11
Stowing> Tube Return encoder value: 571
TUBETasETask> Stowing> difference in encoder values: 13
Stowing> Tube Return encoder value: 528
TUBETask> Stowing> difference in encoder values: 12
Stowing> Tube Return encoder value: 516
TUBETask> Stowing> difference in encoder values: 0
TUBETask> Stowing> difference in encoder values: 22
Stowing> Tube Return encoder value: 494
TUBETask> Stowing> differeder values: 0
TUBETask> Stowing> difference in encoder values: 13
Stowing> Tube Return encoder value: 481
TUBETask> Stowing> difference in encoder values: 0
TUBETask> Stowing> difference in encoder values: 27
Stowing> Tube Return encoder value: 454
TUBETask> Stowing> difference in encoder values: 0
TUBETask> Stowing> difference in encoder values: 12
Stowing> Tube Return encoder value: 442
TUBETask> Stowing> difference in encoder values: 0
TUBETask> Stowing> difference in encoder values: 28
Stowing> Tube Return encoder value: 414
TUBETask> Stowing> difference in encoder values: 0
TUBETask> Stowing> difference in encoder values: 18
Stowing> Tube Return encoder value: 396
TUBETask> Stowing> difference in encoder values: 14
Stowing> Tube Return encoder value: 382
TUBETask> Stowing> difference in encoder values: 14
Stowing> Tube Return encoder value: 368
TUBETask> Stowing> difference in encoder values: 0
TUBETask> Stowing> difference in encoder values: 26
Stowing> Tube Return encoder value: 342
TUBETask> Stowing> difference in encoder values: 0
TUBETask> Stowing> difference in encoder values: 17
Stowing> Tube Return encoder value: 325
TUBETask> Stowing> difference in encoder values: 0
TUBETask> Stowing> difference in encoder values: 29
Stowing> Tube Return encoder value: 296
TUBETask> Stowing> difference in encoder values: 0
TUBETask> Stowing> difference in encoder values: 11
Stowing> Tube Return encoder value: 285
TUBETask> Stowing> difference in encoder values: 0
TUBETask> Stowing> difference in encoder values: 27
Stowing> Tube Return encoder value: 258
TUBETask> Stowing> difference in encoder values: 0
TUBETask> Stowing> difference in encoder values: 15
Stowing> Tube Return encoder value: 243
TUBETask> Stowing> difference in encoder values: 0
TUBETask> Stowing> difference in encoder values: 19
Stowing> Tube Return encoder value: 224
TUBETask> Stowing> difference in encoder values: 0
TUBETask> Stowing> difference in encoder values: 9
TUBETask> Stowing> difference in encoder values: 22
Stowing> Tube Return encoder value: 202
TUBETask> Stowing> difference in encoder values: 0
TUBETask> Stowing> difference in encoder values: 11
Stowing> Tube Return encoder value: 191
TUBETask> Stowing> difference in encoder values: 17
Stowing> Tube Return encoder value: 174
TUBETask> Stowing> difference in encoder values: 0
TUBETask> Stowing> difference in encoder values: 23
Stowing> Tube Return encoder value: 151
TUBETask> Stowing> difference in encoder values: 0
TUBETask> Stowing> difference in encoder values: 11
Stowinowing> difference in encoder values: 15
Stowing> Tube Rdifference in encoder values: 10
TUBETask> Stowing> difference in encoder values: 26
Stowing> Tube Return encoder value: 45
TUBETask> Stowing> difference in encoder values: 0
TUBETask> Stowing> difference in encoder values: 8
TUBETask> Stowing> difference in encoder values: 8
TUBETask> Stowing> difference in encoder values: 16
Stowing> Tube Return encoder value: 29
TUBETask> Stowing> difference in encoder values: 0
TUBETask> Stowing> difference in encoder values: 19
Stowing> Tube Return encoder value: 10
TUBETask> Stowing> difference in encoder values: 0
TUBETask> Stowing> difference in encoder values: 7
TUBETask> Stowing> difference in encoder values: 7
TubeReturnStopped> encoder value: -11
TubeStowedArmDeployed> DONE
Center goal to Kickstand
Knock out kickstand
Turning Right: 45.0 degrees  leftPower: 80  rightPower: -80
DriveTask> turning right: target Deg: 45.0 curDeg: 0.0  diff: 45.0
DriveTask> turning right: target Deg: 45.0 curDeg: -0.0  diff: 45.0
DriveTask> turning right: target Deg: 45.0 curDeg: -0.0  diff: 45.0
DriveTask> turning right: target Deg: 45.0 curDeg: 0.1  diff: 44.9
DriveTask> turning right: target Deg: 45.0 curDeg: 1.1  diff: 43.9
DriveTask> turning right: target Deg: 45.0 curDeg: 2.1  diff: 42.9
DriveTask> turning right: target Deg: 45.0 curDeg: 3.1  diff: 41.9
DriveTask> turning right: target Deg: 45.0 curDeg: 4.5  diff: 40.5
DriveTask> turning right: target Deg: 45.0 curDeg: 6.0  diff: 39.0
DriveTask> turning right: target Deg: 45.0 curDeg: 7.3  diff: 37.7
DriveTask> turning right: target Deg: 45.0 curDeg: 9.4  diff: 35.6
DriveTask> turning right: target Deg: 45.0 curDeg: 11.3  diff: 33.7
DriveTask> turning right: target Deg: 45.0 curDeg: 13.3  diff: 31.7
DriveTask> turning right: target Deg: 45.0 curDeg: 15.7  diff: 29.3
DriveTask> turning right: target Deg: 45.0 curDeg: 18.1  diff: 26.9
DriveTask> turning right: target Deg: 45.0 curDeg: 20.5  diff: 24.5
DriveTask> turning right: target Deg: 45.0 curDeg: 23.3  diff: 21.7
DriveTask> turning right: target Deg: 45.0 curDeg: 25.9  diff: 19.1
DriveTask> turning right: target Deg: 45.0 curDeg: 27.9  diff: 17.1
DriveTask> turning right: target Deg: 45.0 curDeg: 30.0  diff: 15.0
DriveTask> turning right: target Deg: 45.0 curDeg: 31.6  diff: 13.4
DriveTask> turning right: target Deg: 45.0 curDeg: 32.9  diff: 12.1
DriveTask> turning right: target Deg: 45.0 curDeg: 33.7  diff: 11.3
DriveTask> turning right: target Deg: 45.0 curDeg: 34.3  diff: 10.7
DriveTask> turning right: target Deg: 45.0 curDeg: 34.7  diff: 10.3
DriveTask> turning right: target Deg: 45.0 curDeg: 35.1  diff: 9.9
DriveTask> turning right: target Deg: 45.0 curDeg: 35.3  diff: 9.7
DriveTask> turning right: target Deg: 45.0 curDeg: 35.5  diff: 9.5
DriveTask> turning right: target Deg: 45.0 curDeg: 35.8  diff: 9.2
DriveTask> turning right: target Deg: 45.0 curDeg: 35.9  diff: 9.1
DriveTask> turning right: target Deg: 45.0 curDeg: 36.0  diff: 9.0
DriveTask> turning right: target Deg: 45.0 curDeg: 36.3  diff: 8.7
DriveTask> turning right: target Deg: 45.0 curDeg: 36.5  diff: 8.5
DriveTask> turning right: target Deg: 45.0 curDeg: 36.8  diff: 8.2
DriveTask> turning right: target Deg: 45.0 curDeg: 37.2  diff: 7.8
DriveTask> turning right: target Deg: 45.0 curDeg: 37.6  diff: 7.4
DriveTask> turning right: target Deg: 45.0 curDeg: 38.0  diff: 7.0
DriveTask> turning right: target Deg: 45.0 curDeg: 38.5  diff: 6.5
DriveTask> turning right: target Deg: 45.0 curDeg: 39.0  diff: 6.0
DriveTask> turning right: target Deg: 45.0 curDeg: 39.4  diff: 5.6
DriveTask> turning right: target Deg: 45.0 curDeg: 39.8  diff: 5.2
DriveTask> turning right: target Deg: 45.0 curDeg: 40.2  diff: 4.8
DriveTask> turning right: target Deg: 45.0 curDeg: 40.7  diff: 4.3
DriveTask> turning right: target Deg: 45.0 curDeg: 41.2  diff: 3.8
DriveTask> turning right: target Deg: 45.0 curDeg: 41.7  diff: 3.3
DriveTask> turning right: target Deg: 45.0 curDeg: 42.2  diff: 2.8
DriveTask> turning right: target Deg: 45.0 curDeg: 42.6  diff: 2.4
DriveTask> turning right: target Deg: 45.0 curDeg: 43.0  diff: 2.0
DriveTask> turning right: target Deg: 45.0 curDeg: 43.4  diff: 1.6
DriveTask> turning right: target Deg: 45.0 curDeg: 43.8  diff: 1.2
DriveTask> turning right: target Deg: 45.0 curDeg: 44.1  diff: 0.9
DriveTask> turning right: target Deg: 45.0 curDeg: 44.6  diff: 0.4
DriveTask> turning right: target Deg: 45.0 curDeg: 45.0  diff: 0.0
DriveTask> turning right: target Deg: 45.0 curDeg: 45.4  diff: -0.4
Stopping DriveTrain
MOTORMoveToTarget> target: 3375 > current: 5739
MOTORMoveToTarget> power: -54 > pos: 3375
>Moving lift to 90cm
Fwd: 20''
Lift Moving: target: 3375 cur: 5739
Lift Moving: target: 3375 cur: 5739
Lift Moving: target: 3375 cur: 5732
Lift Moving: target: 3375 cur: 5713
Lift Moving: target: 3375 cur: 5693
Lift Moving: target: 3375 cur: 5691
Lift Moving: target: 3375 cur: 5687
Lift Moving: target: 3375 cur: 5686
Lift Moving: target: 3375 cur: 5685
Lift Moving: target: 3375 cur: 5677
Lift Moving: target: 3375 cur: 5673
Lift Moving: target: 3375 cur: 5672
Lift Moving: target: 3375 cur: 5672
Lift Moving: target: 3375 cur: 5672
Lift Moving: target: 3375 cur: 5672
Lift Moving: target: 3375 cur: 5672
Lift motor not moving. Force it to move
MOTORMoveToTarget> target: 3375 > current: 5672
MOTORMoveToTarget> power: -54 > pos: 3375
Lift Moving: target: 3375 cur: 5672
Lift Moving: target: 3375 cur: 5672
Lift Moving: target: 3375 cur: 5670
Lift Moving: target: 3375 cur: 5666
Lift Moving: target: 3375 cur: 5665
Lift Moving: target: 3375 cur: 5665
Lift Moving: target: 3375 cur: 5665
Lift Moving: target: 3375 cur: 5665
Lift Moving: target: 3375 cur: 5665
Lift motor not moving. Force it to move
MOTORMoveToTarget> target: 3375 > current: 5665
MOTORMoveToTarget> power: -54 > pos: 3375
Lift Moving: target: 3375 cur: 5665
Lift Moving: target: 3375 cur: 5665
Lift Moving: target: 3375 cur: 5665
Lift Moving: target: 3375 cur: 5665
Lift Moving: target: 3375 cur: 5665
Lift motor not moving. Force it to move
MOTORMoveToTarget> target: 3375 > current: 5665
MOTORMoveToTarget> power: -54 > pos: 3375
Lift Moving: target: 3375 cur: 5665
Lift Moving: target: 3375 cur: 5665
Lift Moving: target: 3375 cur: 5665
Lift Moving: target: 3375 cur: 5665
Lift Moving: target: 3375 cur: 5665
Lift motor not moving. Force it to move
MOTORMoveToTarget> target: 3375 > current: 5665
MOTORMoveToTarget> power: -54 > pos: 3375
Lift Moving: target: 3375 cur: 5665
Lift Moving: target: 3375 cur: 5665
Lift Moving: target: 3375 cur: 5665
Lift Moving: target: 3375 cur: 5665
Lift Moving: target: 3375 cur: 5665
Lift motor not moving. Force it to move
MOTORMoveToTarget> target: 3375 > current: 5665
MOTORMoveToTarget> power: -54 > pos: 3375
Lift Moving: target: 3375 cur: 5665
Lift Moving: target: 3375 cur: 5665
Lift Moving: target: 3375 cur: 5665
Lift Moving: target: 3375 cur: 5665
Lift Moving: target: 3375 cur: 5665
Lift motor not moving. Force it to move
MOTORMoveToTarget> target: 3375 > current: 5665
MOTORMoveToTarget> power: -54 > pos: 3375
Lift Moving: target: 3375 cur: 5665
Lift Moving: target: 3375 cur: 5665
Lift Moving: target: 3375 cur: 5665
Lift Moving: target: 3375 cur: 5665
Lift Moving: target: 3375 cur: 5665
Lift motor not moving. Force it to move
MOTORMoveToTarget> target: 3375 > current: 5665
MOTORMoveToTarget> power: -54 > pos: 3375
Lift Moving: target: 3375 cur: 5665
Lift Moving: target: 3375 cur: 5665
Lift Moving: target: 3375 cur: 5665
Lift Moving: target: 3375 cur: 5665
Lift Moving: target: 3375 cur: 5665
Lift motor not moving. Force it to move
MOTORMoveToTarget> target: 3375 > current: 5665
MOTORMoveToTarget> power: -54 > pos: 3375
Lift Moving: target: 3375 cur: 5665
Lift Moving: target: 3375 cur: 5665
Lift Moving: target: 3375 cur: 5665
Lift Moving: target: 3375 cur: 5665
Lift Moving: target: 3375 cur: 5665
Lift motor not moving. Force it to move
MOTORMoveToTarget> target: 3375 > current: 5665
MOTORMoveToTarget> power: -54 > pos: 3375
Lift Moving: target: 3375 cur: 5665
Lift Moving: target: 3375 cur: 5665
Lift Moving: target: 3375 cur: 5665
Lift Moving: target: 3375 cur: 5665
Lift Moving: target: 3375 cur: 5665
Lift motor not moving. Force it to move
MOTORMoveToTarget> target: 3375 > current: 5665
MOTORMoveToTarget> power: -54 > pos: 3375
Lift Moving: target: 3375 cur: 5665
Lift Moving: target: 3375 cur: 5664
Lift Moving: target: 3375 cur: 5664
Lift Moving: target: 3375 cur: 5664
Lift Moving: target: 3375 cur: 5664
Lift Moving: target: 3375 cur: 5664
Lift motor not moving. Force it to move
MOTORMoveToTarget> target: 3375 > current: 5664
MOTORMoveToTarget> power: -54 > pos: 3375
Lift Moving: target: 3375 cur: 5664
Lift Moving: target: 3375 cur: 5664
Lift Moving: target: 3375 cur: 5664
Lift Moving: target: 3375 cur: 5664
Stopping DriveTrain
Lift Moving: target: 3375 cur: 5664
Turning Left: -45.0 degrees  leftPower: -80  rightPower: 80
Lift motor not moving. Force it to move
MOTORMoveToTarget> target: 3375 > current: 5664
MOTORMoveToTarget> power: -54 > pos: 3375
Lift Moving: target: 3375 cur: 5664
Lift Moving: target: 3375 cur: 5664
Lift Moving: target: 3375 cur: 5664
Lift Moving: target: 3375 cur: 5664
Lift Moving: target: 3375 cur: 5664
Lift motor not moving. Force it to move
MOTORMoveToTarget> target: 3375 > current: 5664
MOTORMoveToTarget> power: -54 > pos: 3375
Lift Moving: target: 3375 cur: 5664
Lift Moving: target: 3375 cur: 5664
Lift Moving: target: 3375 cur: 5664
Lift Moving: target: 3375 cur: 5664
Lift Moving: target: 3375 cur: 5664
Lift motor not moving. Force it to move
MOTORMoveToTarget> target: 3375 > current: 5664
MOTORMoveToTarget> power: -54 > pos: 3375
Lift Moving: target: 3375 cur: 5664
Lift Moving: target: 3375 cur: 5664
Lift Moving: target: 3375 cur: 5664
Lift Moving: target: 3375 cur: 5664
Lift Moving: target: 3375 cur: 5664
Lift motor not moving. Force it to move
MOTORMoveToTarget> target: 3375 > current: 5664
MOTORMoveToTarget> power: -54 > pos: 3375
Lift Moving: target: 3375 cur: 5664
Lift Moving: target: 3375 cur: 5664
Lift Moving: target: 3375 cur: 5664
Lift Moving: target: 3375 cur: 5664
Lift Moving: target: 3375 cur: 5664
Lift motor not moving. Force it to move
MOTORMoveToTarget> target: 3375 > current: 5664
MOTORMoveToTarget> power: -54 > pos: 3375
Lift Moving: target: 3375 cur: 5664
Lift Moving: target: 3375 cur: 5664
Lift Moving: target: 3375 cur: 5664
Lift Moving: target: 3375 cur: 5664
Lift Moving: target: 3375 cur: 5664
Lift motor not moving. Force it to move
MOTORMoveToTarget> target: 3375 > current: 5664
MOTORMoveToTarget> power: -54 > pos: 3375
Lift Moving: target: 3375 cur: 5664
Lift Moving: target: 3375 cur: 5664
Lift Moving: target: 3375 cur: 5664
Lift Moving: target: 3375 cur: 5664
Lift Moving: target: 3375 cur: 5664
Lift motor not moving. Force it to move
MOTORMoveToTarget> target: 3375 > current: 5664
MOTORMoveToTarget> power: -54 > pos: 3375
Lift Moving: target: 3375 cur: 5664
Lift Moving: target: 3375 cur: 5664
Lift Moving: target: 3375 cur: 5664
Lift Moving: target: 3375 cur: 5664
Lift Moving: target: 3375 cur: 5664
Lift motor not moving. Force it to move
MOTORMoveToTarget> target: 3375 > current: 5664
MOTORMoveToTarget> power: -54 > pos: 3375
Lift Moving: target: 3375 cur: 5664
Lift Moving: target: 3375 cur: 5664
Lift Moving: target: 3375 cur: 5664
Lift Moving: target: 3375 cur: 5664
Lift Moving: target: 3375 cur: 5664
Lift motor not moving. Force it to move
MOTORMoveToTarget> target: 3375 > current: 5664
MOTORMoveToTarget> power: -54 > pos: 3375
Lift Moving: target: 3375 cur: 5664
Lift Moving: target: 3375 cur: 5664
Lift Moving: target: 3375 cur: 5664
Lift Moving: target: 3375 cur: 5664
Lift Moving: target: 3375 cur: 5664
Lift motor not moving. Force it to move
MOTORMoveToTarget> target: 3375 > current: 5664
MOTORMoveToTarget> power: -54 > pos: 3375
Lift Moving: target: 3375 cur: 5664
Lift Moving: target: 3375 cur: 5664
Lift Moving: target: 3375 cur: 5664
Lift Moving: target: 3375 cur: 5664
Stopping DriveTrain
Lift Moving: target: 3375 cur: 5664
Forward to kickstand
Lift motor not moving. Force it to move
MOTORMoveToTarget> target: 3375 > current: 5664
MOTORMoveToTarget> power: -54 > pos: 3375
Lift Moving: target: 3375 cur: 5664
Lift Moving: target: 3375 cur: 5664
Lift Moving: target: 3375 cur: 5664
Lift Moving: target: 3375 cur: 5664
Lift Moving: target: 3375 cur: 5664
Lift motor not moving. Force it to move
MOTORMoveToTarget> target: 3375 > current: 5664
MOTORMoveToTarget> power: -54 > pos: 3375
Lift Moving: target: 3375 cur: 5664
Lift Moving: target: 3375 cur: 5664
Lift Moving: target: 3375 cur: 5664
Lift Moving: target: 3375 cur: 5664
Lift Moving: target: 3375 cur: 5664
Lift motor not moving. Force it to move
MOTORMoveToTarget> target: 3375 > current: 5664
MOTORMoveToTarget> power: -54 > pos: 3375
Lift Moving: target: 3375 cur: 5664
Lift Moving: target: 3375 cur: 5664
Lift Moving: target: 3375 cur: 5664
Lift Moving: target: 3375 cur: 5664
Lift Moving: target: 3375 cur: 5664
Lift motor not moving. Force it to move
MOTORMoveToTarget> target: 3375 > current: 5664
MOTORMoveToTarget> power: -54 > pos: 3375
Lift Moving: target: 3375 cur: 5664
Lift Moving: target: 3375 cur: 5664
Lift Moving: target: 3375 cur: 5664
Lift Moving: target: 3375 cur: 5664
Lift Moving: target: 3375 cur: 5664
Lift motor not moving. Force it to move
MOTORMoveToTarget> target: 3375 > current: 5664
MOTORMoveToTarget> power: -54 > pos: 3375
Lift Moving: target: 3375 cur: 5664
Lift Moving: target: 3375 cur: 5664
Lift Moving: target: 3375 cur: 5664
Lift Moving: target: 3375 cur: 5664
Lift Moving: target: 3375 cur: 5664
Lift motor not moving. Force it to move
MOTORMoveToTarget> target: 3375 > current: 5664
MOTORMoveToTarget> power: -54 > pos: 3375
Lift Moving: target: 3375 cur: 5664
Lift Moving: target: 3375 cur: 5664
Lift Moving: target: 3375 cur: 5664
Lift Moving: target: 3375 cur: 5664
Lift Moving: target: 3375 cur: 5664
Lift motor not moving. Force it to move
MOTORMoveToTarget> target: 3375 > current: 5664
MOTORMoveToTarget> power: -54 > pos: 3375
Lift Moving: target: 3375 cur: 5664
Lift Moving: target: 3375 cur: 5664
Lift Moving: target: 3375 cur: 5664
Lift Moving: target: 3375 cur: 5664
Lift Moving: target: 3375 cur: 5664
Lift motor not moving. Force it to move
MOTORMoveToTarget> target: 3375 > current: 5664
MOTORMoveToTarget> power: -54 > pos: 3375
Lift Moving: target: 3375 cur: 5664
Lift Moving: target: 3375 cur: 5664
Lift Moving: target: 3375 cur: 5664
Lift Moving: target: 3375 cur: 5664
Lift Moving: target: 3375 cur: 5664
Lift motor not moving. Force it to move
MOTORMoveToTarget> target: 3375 > current: 5664
MOTORMoveToTarget> power: -54 > pos: 3375
Lift Moving: target: 3375 cur: 5664
Lift Moving: target: 3375 cur: 5664
Lift Moving: target: 3375 cur: 5664
Lift Moving: target: 3375 cur: 5664
Lift Moving: target: 3375 cur: 5664
Lift motor not moving. Force it to move
MOTORMoveToTarget> target: 3375 > current: 5664
MOTORMoveToTarget> power: -54 > pos: 3375
Lift Moving: target: 3375 cur: 5664
Lift Moving: target: 3375 cur: 5664
Lift Moving: target: 3375 cur: 5664
Lift Moving: target: 3375 cur: 5664
Lift Moving: target: 3375 cur: 5664
Lift motor not moving. Force it to move
MOTORMoveToTarget> target: 3375 > current: 5664
MOTORMoveToTarget> power: -54 > pos: 3375
Lift Moving: target: 3375 cur: 5664
Lift Moving: target: 3375 cur: 5664
Lift Moving: target: 3375 cur: 5664
Lift Moving: target: 3375 cur: 5664
Lift Moving: target: 3375 cur: 5664
Lift motor not moving. Force it to move
MOTORMoveToTarget> target: 3375 > current: 5664
MOTORMoveToTarget> power: -54 > pos: 3375
Lift Moving: target: 3375 cur: 5664
Lift Moving: target: 3375 cur: 5664
Lift Moving: target: 3375 cur: 5664
Lift Moving: target: 3375 cur: 5664
Lift Moving: target: 3375 cur: 5664
Lift motor not moving. Force it to move
MOTORMoveToTarget> target: 3375 > current: 5664
MOTORMoveToTarget> power: -54 > pos: 3375
Lift Moving: target: 3375 cur: 5664
Lift Moving: target: 3375 cur: 5664
Lift Moving: target: 3375 cur: 5664
Lift Moving: target: 3375 cur: 5664
Lift Moving: target: 3375 cur: 5664
Lift motor not moving. Force it to move
MOTORMoveToTarget> target: 3375 > current: 5664
MOTORMoveToTarget> power: -54 > pos: 3375
Lift Moving: target: 3375 cur: 5664
Lift Moving: target: 3375 cur: 5664
Lift Moving: target: 3375 cur: 5664
Lift Moving: target: 3375 cur: 5664
Lift Moving: target: 3375 cur: 5664
Lift motor not moving. Force it to move
MOTORMoveToTarget> target: 3375 > current: 5664
MOTORMoveToTarget> power: -54 > pos: 3375
Lift Moving: target: 3375 cur: 5664
Lift Moving: target: 3375 cur: 5664
Lift Moving: target: 3375 cur: 5664
Lift Moving: target: 3375 cur: 5664
Lift Moving: target: 3375 cur: 5664
Lift motor not moving. Force it to move
MOTORMoveToTarget> target: 3375 > current: 5664
MOTORMoveToTarget> power: -54 > pos: 3375
Lift Moving: target: 3375 cur: 5664
Lift Moving: target: 3375 cur: 5664
Lift Moving: target: 3375 cur: 5664
Lift Moving: target: 3375 cur: 5664
Lift Moving: target: 3375 cur: 5664
Stopping DriveTrain
Lift motor not moving. Force it to move
MOTORMoveToTarget> target: 3375 > current: 5664
MOTORMoveToTarget> power: -54 > pos: 3375
Lift Moving: target: 3375 cur: 5664
Lift Moving: target: 3375 cur: 5663
Lift Moving: target: 3375 cur: 5663
Lift Moving: target: 3375 cur: 5663
Lift Moving: target: 3375 cur: 5663
Lift Moving: target: 3375 cur: 5663
Lift motor not moving. Force it to move
MOTORMoveToTarget> target: 3375 > current: 5663
MOTORMoveToTarget> power: -54 > pos: 3375
Lift Moving: target: 3375 cur: 5663
Lift Moving: target: 3375 cur: 5663
Lift Moving: target: 3375 cur: 5663
Lift Moving: target: 3375 cur: 5663
Lift Moving: target: 3375 cur: 5663
Lift motor not moving. Force it to move
MOTORMoveToTarget> target: 3375 > current: 5663
MOTORMoveToTarget> power: -54 > pos: 3375
Lift Moving: target: 3375 cur: 5663
Lift Moving: target: 3375 cur: 5663
Lift Moving: target: 3375 cur: 5663
Lift Moving: target: 3375 cur: 5663
Lift Moving: target: 3375 cur: 5663
Lift motor not moving. Force it to move
MOTORMoveToTarget> target: 3375 > current: 5663
MOTORMoveToTarget> power: -54 > pos: 3375
Lift Moving: target: 3375 cur: 5663
Lift Moving: target: 3375 cur: 5663
Lift Moving: target: 3375 cur: 5663
Lift Moving: target: 3375 cur: 5663
Lift Moving: target: 3375 cur: 5663
Lift motor not moving. Force it to move
MOTORMoveToTarget> target: 3375 > current: 5663
MOTORMoveToTarget> power: -54 > pos: 3375
Lift Moving: target: 3375 cur: 5663
Lift Moving: target: 3375 cur: 5663
Lift Moving: target: 3375 cur: 5663
Lift Moving: target: 3375 cur: 5663
Lift Moving: target: 3375 cur: 5663
Lift motor not moving. Force it to move
MOTORMoveToTarget> target: 3375 > current: 5663
MOTORMoveToTarget> power: -54 > pos: 3375
Lift Moving: target: 3375 cur: 5663
Lift Moving: target: 3375 cur: 5663
Lift Moving: target: 3375 cur: 5663
Lift Moving: target: 3375 cur: 5663
Lift Moving: target: 3375 cur: 5663
Lift motor not moving. Force it to move
MOTORMoveToTarget> target: 3375 > current: 5663
MOTORMoveToTarget> power: -54 > pos: 3375
Lift Moving: target: 3375 cur: 5663
Lift Moving: target: 3375 cur: 5663
Lift Moving: target: 3375 cur: 5663
Lift Moving: target: 3375 cur: 5663
Lift Moving: target: 3375 cur: 5663
Lift motor not moving. Force it to move
MOTORMoveToTarget> target: 3375 > current: 5663
MOTORMoveToTarget> power: -54 > pos: 3375
Lift Moving: target: 3375 cur: 5663
Lift Moving: target: 3375 cur: 5663
Lift Moving: target: 3375 cur: 5663
Lift Moving: target: 3375 cur: 5663
Lift Moving: target: 3375 cur: 5663
Lift motor not moving. Force it to move
MOTORMoveToTarget> target: 3375 > current: 5663
MOTORMoveToTarget> power: -54 > pos: 3375
Lift Moving: target: 3375 cur: 5663
Lift Moving: target: 3375 cur: 5663
Lift Moving: target: 3375 cur: 5663
Lift Moving: target: 3375 cur: 5663
Lift Moving: target: 3375 cur: 5663
Lift motor not moving. Force it to move
MOTORMoveToTarget> target: 3375 > current: 5663
MOTORMoveToTarget> power: -54 > pos: 3375
Lift Moving: target: 3375 cur: 5663
Lift Moving: target: 3375 cur: 5663
Lift Moving: target: 3375 cur: 5663
Lift Moving: target: 3375 cur: 5663
Lift Moving: target: 3375 cur: 5663
Lift motor not moving. Force it to move
MOTORMoveToTarget> target: 3375 > current: 5663
MOTORMoveToTarget> power: -54 > pos: 3375
Lift Moving: target: 3375 cur: 5663
Lift Moving: target: 3375 cur: 5663
Lift Moving: target: 3375 cur: 5663
Lift Moving: target: 3375 cur: 5663
Lift Moving: target: 3375 cur: 5663
Lift motor not moving. Force it to move
MOTORMoveToTarget> target: 3375 > current: 5663
MOTORMoveToTarget> power: -54 > pos: 3375
Lift Moving: target: 3375 cur: 5663
Lift Moving: target: 3375 cur: 5663
Lift Moving: target: 3375 cur: 5663
Lift Moving: target: 3375 cur: 5663
Lift Moving: target: 3375 cur: 5663
Lift motor not moving. Force it to move
MOTORMoveToTarget> target: 3375 > current: 5663
MOTORMoveToTarget> power: -54 > pos: 3375
Lift Moving: target: 3375 cur: 5663
Lift Moving: target: 3375 cur: 5663
Lift Moving: target: 3375 cur: 5663
Lift Moving: target: 3375 cur: 5663
Lift Moving: target: 3375 cur: 5663
Lift motor not moving. Force it to move
MOTORMoveToTarget> target: 3375 > current: 5663
MOTORMoveToTarget> power: -54 > pos: 3375
Lift Moving: target: 3375 cur: 5663
Lift Moving: target: 3375 cur: 5663
Lift Moving: target: 3375 cur: 5663
Lift Moving: target: 3375 cur: 5663
Lift Moving: target: 3375 cur: 5663
Lift motor not moving. Force it to move
MOTORMoveToTarget> target: 3375 > current: 5663
MOTORMoveToTarget> power: -54 > pos: 3375
Lift Moving: target: 3375 cur: 5663
Lift Moving: target: 3375 cur: 5663
Stopping DriveTrain
Lift Moving: target: 3375 cur: 5663
Lift Moving: target: 3375 cur: 5663
Lift Moving: target: 3375 cur: 5663
Lift motor not moving. Force it to move
MOTORMoveToTarget> target: 3375 > current: 5663
MOTORMoveToTarget> power: -54 > pos: 3375
Lift Moving: target: 3375 cur: 5663
Lift Moving: target: 3375 cur: 5663
Lift Moving: target: 3375 cur: 5663
Lift Moving: target: 3375 cur: 5663
Lift Moving: target: 3375 cur: 5663
Lift motor not moving. Force it to move
MOTORMoveToTarget> target: 3375 > current: 5663
MOTORMoveToTarget> power: -54 > pos: 3375
Lift Moving: target: 3375 cur: 5663
Lift Moving: target: 3375 cur: 5663
Lift Moving: target: 3375 cur: 5663
Lift Moving: target: 3375 cur: 5663
Lift Moving: target: 3375 cur: 5663
Lift motor not moving. Force it to move
MOTORMoveToTarget> target: 3375 > current: 5663
MOTORMoveToTarget> power: -54 > pos: 3375
Lift Moving: target: 3375 cur: 5663
Lift Moving: target: 3375 cur: 5663
Lift Moving: target: 3375 cur: 5663
Lift Moving: target: 3375 cur: 5663
Lift Moving: target: 3375 cur: 5663
Lift motor not moving. Force it to move
MOTORMoveToTarget> target: 3375 > current: 5663
MOTORMoveToTarget> power: -54 > pos: 3375
Lift Moving: target: 3375 cur: 5663
Lift Moving: target: 3375 cur: 5663
Lift Moving: target: 3375 cur: 5663
Lift Moving: target: 3375 cur: 5663
Lift Moving: target: 3375 cur: 5663
Lift motor not moving. Force it to move
MOTORMoveToTarget> target: 3375 > current: 5663
MOTORMoveToTarget> power: -54 > pos: 3375
Lift Moving: target: 3375 cur: 5663
Lift Moving: target: 3375 cur: 5663
Lift Moving: target: 3375 cur: 5663
Lift Moving: target: 3375 cur: 5663
Lift Moving: target: 3375 cur: 5663
Lift motor not moving. Force it to move
MOTORMoveToTarget> target: 3375 > current: 5663
MOTORMoveToTarget> power: -54 > pos: 3375
Lift Moving: target: 3375 cur: 5663
Lift Moving: target: 3375 cur: 5663
 > current: 5663
MOTORMoveToTarget> power: -54 > pos: 3 to move
MOTORMoveToTarget> target: 3375 > current: 5661
MOTORMoveToTarget> power: -54 > pos: 3375
Lift Moving: target: 3375 cur: 5661
Lift Moving: target: 3375 cur: 5661
Lift Moving: target: 3375 cur: 5661
Lift Moving: target: 3375 cur: 5661
Lift Moving: target: 3375 cur: 5661
Lift motor not moving. Force it to move
MOTORMoveToTarget> target: 33755661
Lift Moving: target: 3375 cur: 5661
Lift Moving: target: 3375 cur: 5661
Lift motor not moving. Force it to move
MOTORMoveToTarget> target: 3375 > current: 5661
MOTORMoveToTarget> power: -54 > pos: 3375
Lift Moving: target: 3375 cur: 5661
Lift Moving: target: 3375 cur: 5661
Lift Moving: target: 3375 cur: 5661
Lift Moving: target: 3375 cur: 5661 to move
MOTORMoveToTarget> target: 3375 > current: 5661
MOTORMoveToTarget> power: -54 > pos: 3375
Lift Moving: target: 3375 cur: 5661
Lift Moving: target: 3375 cur: 5661
Lift Moving: target: 3375 cur: 5661
Lift Moving: target: 3375 cur: 5661
Lift Moving: target: 3375 cur: 5661
Lift motor not moving. Force it to move
MOTORMoveToTarget> target: 33755661
Lift Moving: target: 3375 cur: 5661
Lift Moving: target: 3375 cur: 5661
Lift Moving: target: 3375 cur: 5661
Lift motor not moving. Force it to move
MOTORMoveToTarget> target: 3375 > current: 5661
MOTORMoveToTarget> power: -54 > pos: 3375
Lift Moving: target: 3375 cur: 5661
Lift Moving: target: 3375 cur: 5661
Lift Moving: target: 3375 cur: 56615661
Lift Moving: target: 3375 cur: 5661
Lift Moving: target: 3375 cur: 5661
Lift Moving: target: 3375 cur: 5661
Lift Moving: target: 3375 cur: 5661
Lift motor not moving. Force it to move
MOTORMoveToTarget> target: 3375 > current: 5661
MOTORMoveToTarget> power: -54 > pos: 3375
Lift Moving: target: 3375 cur: 5661
Lift Moving: target: 3375 cur: 56615661
Lift Moving: target: 3375 cur: 5661
Lift Moving: target: 3375 cur: 5661
Lift motor not moving. Force it to move
MOTORMoveToTarget> target: 3375 > current: 5661
MOTORMoveToTarget> power: -54 > pos: 3375
Lift Moving: target: 3375 cur: 5661
Lift Moving: target: 3375 cur: 5661
Lift Moving: target: 3375 cur: 5661
Lift Moving: target: 3375 cur: 56615661
Lift Moving: target: 3375 cur: 5661
Lift Moving: target: 3375 cur: 5661
Lift Moving: target: 3375 cur: 5661
Lift motor not moving. Force it to move
MOTORMoveToTarget> target: 3375 > current: 5661
MOTORMoveToTarget> power: -54 > pos: 3375
Lift Moving: target: 3375 cur: 5661
Lift Moving: target: 3375 cur: 5661
Lift Moving: target: 3375 cur: 56615661
Lift Moving: target: 3375 cur: 5661
Lift Moving: target: 3375 cur: 5661
Lift Moving: target: 3375 cur: 5661
Lift Moving: target: 3375 cur: 5661
Lift motor not moving. Force it to move
MOTORMoveToTarget> target: 3375 > current: 5661
MOTORMoveToTarget> power: -54 > pos: 3375
Lift Moving: target: 3375 cur: 5661
Lift Moving: target: 3375 cur: 56615661
Lift Moving: target: 3375 cur: 5661
Lift Moving: target: 3375 cur: 5661
Lift Moving: target: 3375 cur: 5661
Lift motor not moving. Force it to move
MOTORMoveToTarget> target: 3375 > current: 5661
MOTORMoveToTarget> power: -54 > pos: 3375
Lift Moving: target: 3375 cur: 5661
Lift Moving: target: 3375 cur: 5661
Lift Moving: target: 3375 cur: 56615661
Lift Moving: target: 3375 cur: 5661
Lift Moving: target: 3375 cur: 5661
Lift motor not moving. Force it to move
MOTORMoveToTarget> target: 3375 > current: 5661
MOTORMoveToTarget> power: -54 > pos: 3375
Lift Moving: target: 3375 cur: 5661
Lift Moving: target: 3375 cur: 5661
Lift Moving: target: 3375 cur: 5661
Lift Moving: target: 3375 cur: 56615661
Lift motor not moving. Force it to move
MOTORMoveToTarget> target: 3375 > current: 5661
MOTORMoveToTarget> power: -54 > pos: 3375
Lift Moving: target: 3375 cur: 5661
Lift Moving: target: 3375 cur: 5661
Lift Moving: target: 3375 cur: 5661
Lift Moving: target: 3375 cur: 5661
Lift Moving: target: 3375 cur: 5661
Lift motor not moving. Force it to 5661
Lift Moving: target: 3375 cur: 5661
Lift Moving: target: 3375 cur: 5661
Lift Moving: targ5661
Lift Moving: target: 3375 cur: 5661
Lift motor not pos: 3375
Lift Moving: target: 3375 cur: 5661
Lift Moving: target: 3375 cur: 5661
Lift Moving: target: 3375 cur: 5661
Lift Moving: target: 3375 cur: 5661
Lift Moving: target: 3375 cur: 5661
Lift motor not moving. Force it to move
MOTORMoveToTarget> target: 3375 > current: 5661
MOTORMoveToTarget> power: -54 > pos: 3375
Lift Moving: target: 3375 cur to move
MOTORMoveToTarget> target: 3375 > current: 5661
MOTORMoveToTarget> power: -54 > pos: 3375
Lift Moving: target: 3375 cur: 5661
Lift Moving: target: 3375 cur: 5661
Lift Moving: target: 3375 cur: 5661
Lift Moving: target: 3375 cur: 5661
Lift Moving: target: 3375 cur: 5661
Lift motor not moving. Force it to move
MOTORMoveToTarget> target: 33755661
Lift motor not moving. Force it to move
MOTORMoveToTarget> target: 3375 > current: 5661
MOTORMoveToTarget> power: -54 > pos: 3375
Lift Moving: target: 3375 cur: 5661
Lift Moving: target: 3375 cur: 5661
Lift Moving: target: 3375 cur: 5661
Lift Moving: target: 3375 cur: 5661
Lift Moving: target: 3375 cur: 5661
Lift motor not moving. Force it to 5661
Lift motor not moving. Force it to move
MOTORMoveToTarget> target: 3375 > current: 5661
MOTORMoveToTarget> power: -54 > pos: 3375
Lift Moving: target: 3375 cur: 5661
Lift Moving: target: 3375 cur: 5661
Lift Moving: target: 3375 cur: 5661
Lift Moving: target: 3375 cur: 5661
Lift Moving: target: 3375 cur: 5661
Lift motor not moving. Force it to  to move
MOTORMoveToTarget> target: 3375 > current: 5661
MOTORMoveToTarget> power: -54 > pos: 3375
Lift Moving: target: 3375 cur: 5661
Lift Moving: target: 3375 cur: 5661
Lift Moving: target: 3375 cur: 5661
Lift Moving: target: 3375 cur: 5661
Lift Moving: target: 3375 cur: 5661
Lift motor not moving. Force it to move
MOTORMoveToTarget> target: 3375 to move
MOTORMoveToTarget> target: 3375 > current: 5661
MOTORMoveToTarget> power: -54 > pos: 3375
Lift Moving: target: 3375 cur: 5661
Lift Moving: target: 3375 cur: 5661
Lift Moving: target: 3375 cur: 5661
Lift Moving: target: 3375 cur: 5661
Lift Moving: target: 3375 cur: 5661
Lift motor not moving. Force it to move
MOTORMoveToTarget> target: 33755661
Lift motor not moving. Force it to move
MOTORMoveToTarget> target: 3375 > current: 5661
MOTORMoveToTarget> power: -54 > pos: 3375
Lift Moving: target: 3375 cur: 5661
Lift Moving: target: 3375 cur: 5661
Lift Moving: target: 3375 cur: 5661
Lift Moving: target: 3375 cur: 5661
Lift Moving: target: 3375 cur: 5661
Lift motor not moving. Force it to 5661
Lift Moving: target: 3375 cur: 5661
Lift motor not moving. Force it to move
MOTORMoveToTarget> target: 3375 > current: 5661
MOTORMoveToTarget> power: -54 > pos: 3375
Lift Moving: target: 3375 cur: 5661
Lift Moving: target: 3375 cur: 5661
Lift Moving: target: 3375 cur: 5661
Lift Moving: target: 3375 cur: 5661
Lift Moving: target: 3375 cur: 56615661
Lift Moving: target: 3375 cur: 5661
Lift Moving: target: 3375 cur: 5661
Lift Moving: target: 3375 cur: 5661
Lift Moving: target: 3375 cur: 5661
Lift motor not moving. Force it to move
MOTORMoveToTarget> target: 3375 > current: 5661
MOTORMoveToTarget> power: -54 > pos: 3375
Lift Moving: target: 3375 cur: 5661
Lift Moving: target: 3375 cur: 5661 to move
MOTORMoveToTarget> target: 3375 > current: 5661
MOTORMoveToTarget> power: -54 > pos: 3375
Lift Moving: target: 3375 cur: 5661
Lift Moving: target: 3375 cur: 5661
Lift Moving: target: 3375 cur: 5661
Lift Moving: target: 3375 cur: 5661
Lift Moving: target: 3375 cur: 5661
Lift motor not moving. Force it to move
MOTORMoveToTarget> target: 33755661
Lift Moving: target: 3375 cur: 5661
Lift Moving: target: 3375 cur: 5661
Lift Moving: target: 3375 cur: 5661
Lift Moving: target: 3375 cur: 5661
Lift motor not moving. Force it to move
MOTORMoveToTarget> target: 3375 > current: 5661
MOTORMoveToTarget> power: -54 > pos: 3375
Lift Moving: target: 3375 cur: 5661
Lift Moving: target: 3375 cur: 56615661
Lift motor not moving. Force it to move
MOTORMoveToTarget> target: 3375 > current: 5661
M5661
Lift Moving: target: 3375 cur: 5661
Lift Moving: t to move
MOTORMoveToTarget> target: 3375 > current: 5661
MOTORMoveToTarget> power: -54 > pos: 3375
Lift Moving: target: 3375 cur: 5661
Lift Moving: target: 3375 cur: 5661
Lift Moving: target: 3375 cur: 5661
Lift Moving: target: 3375 cur: 5661
Lift Moving: target: 3375 cur: 5661
Lift motor not moving. Force it to move
MOTORMoveToTarget> target: 33755661
Lift Moving: target: 3375 cur: 5661
Lift motor not moving. Force it to move
MOTORMoveToTarget> target: 3375 > current: 5661
MOTORMoveToTarget> power: -54 > pos: 3375
Lift Moving: target: 3375 cur: 5661
Lift Moving: target: 3375 cur: 5661
Lift Moving: target: 3375 cur: 5661
Lift Moving: target: 3375 cur: 5661
Lift Moving: target: 3375 cur: 5661 > current: 5661
MOTORMoveToTarget> power: -54 > pos: 3375
Lift Moving: target: 3375 cur: 5661
Lift Moving: target: 3375 cur: 5661
Lift Moving: target: 3375 cur: 5661
Lift Moving: target: 3375 cur: 5661
Lift Moving: target: 3375 cur: 5661
Lift motor not moving. Force it to move
MOTORMoveToTarget> target: 3375 > current: 5661
MOTORMoveToTarget> powe5661
Lift Moving: target: 3375 cur: 5661
Lift Moving: target: 3375 cur: 5661
Lift motor not moving. Force it to move
MOTORMoveToTarget> target: 3375 > current: 5661
MOTORMoveToTarget> power: -54 > pos: 3375
Lift Moving: target: 3375 cur: 5661
Lift Moving: target: 3375 cur: 5661
Lift Moving: target: 3375 cur: 5661
Lift Moving: target: 3375 cur: 5661 to move
MOTORMoveToTarget> target: 3375 > current: 5661
MOTORMoveToTarget> power: -54 > pos: 3375
Lift Moving: target: 3375 cur: 5661
Lift Moving: target: 3375 cur: 5661
Lift Moving: target: 3375 cur: 5661
Lift Moving: target: 3375 cur: 5661
Lift Moving: target: 3375 cur: 5661
Lift motor not moving. Force it to move
MOTORMoveToTarget> target: 33755661
Lift Moving: target: 3375 cur: 5661
Lift motor not moving. Force it to move
MOTORMoveToTarget> target: 3375 > current: 5661
MOTORMoveToTarget> power: -54 > pos: 3375
Lift Moving: target: 3375 cur: 5661
Lift Moving: target: 3375 cur: 5661
Lift Moving: target: 3375 cur: 5661
Lift Moving: target: 3375 cur: 5661
Lift Moving: target: 3375 cur: 56615661
Lift Moving: target: 3375 cur: 5661
Lift motor not moving. Force it to move
MOTORMoveToTarget> target: 3375 > current: 5661
MOTORMoveToTarget> power: -54 > pos: 3375
Lift Moving: target: 3375 cur: 5661
Lift Moving: target: 3375 cur: 5661
Lift Moving: target: 3375 cur: 5661
Lift Moving: target: 3375 cur: 5661
Lift Moving: target: 3375 cur: 5661 to move
MOTORMoveToTarget> target: 3375 > current: 5661
MOTORMoveToTarget> power: -54 > pos: 3375
Lift Moving: target: 3375 cur: 5661
Lift Moving: target: 3375 cur: 5661
Lift Moving: target: 3375 cur: 5661
Lift Moving: target: 3375 cur: 5661
Lift Moving: target: 3375 cur: 5661
Lift motor not moving. Force it to move
MOTORMoveToTarget> target: 3375 to move
MOTORMoveToTarget> target: 3375 > current: 5661
MOTORMoveToTarget> power: -54 > pos: 3375
Lift Moving: target: 3375 cur: 5661
Lift Moving: target: 3375 cur: 5661
Lift Moving: target: 3375 cur: 5661
Lift Moving: target: 3375 cur: 5661
Lift Moving: target: 3375 cur: 5661
Lift motor not moving. Force it to move
MOTORMoveToTarget> target: 3375 pos: 3375
Lift Moving: target: 3375 cur: 5661
Lift Moving: target: 3375 cur: 5661
Lift Moving: target: 3375 cur: 5661
Lift Moving: target: 3375 cur: 5661
Lift Moving: target: 3375 cur: 5661
Lift motor not moving. Force it to move
MOTORMoveToTarget> target: 3375 > current: 5661
MOTORMoveToTarget> power: -54 > pos: 3375
Lift Moving: target: 3375 cur5661
Lift motor not moving. Force it to move
MOTORMoveToTarget> target: 3375 > current: 5661
MOTORMoveToTarget> power: -54 > pos: 3375
Lift Moving: target: 3375 cur: 5661
Lift Moving: target: 3375 cur: 5661
Lift Moving: target: 3375 cur: 5661
Lift Moving: target: 3375 cur: 5661
Lift Moving: target: 3375 cur: 5661
Lift motor not moving. Force it to  pos: 3375
Lift Moving: target: 3375 cur: 5661
Lift Moving: target: 3375 cur: 5661
Lift Moving5661
Lift Moving: target: 3375 cur: 5661
Lift Moving: target: 3375 cur: 5661
Lift Moving: target: 3375 cur: 5661
Lift motor not moving. Force it to move
MOTORMoveToTarget> target: 3375 > current: 5661
MOTORMoveToTarget> power: -54 > pos: 3375
Lift Moving: target: 3375 cur: 5661
Lift Moving: target: 3375 cur: 5661
Lift Moving: target: 3375 cur: 5661
Lift Moving: target: 3375 cur: 5661
Lift Moving: target: 3375 cur: 5661
Lift motor not moving. Force it to move
MOTORMoveToTarget> target: 3375 > current: 5661
MOTORMoveToTarget> power: -54 > pos: 3375
Lift Moving: target: 3375 cur: 5661
Lift Moving: target: 3375 cur: 5661
Lift Moving: target: 3375 cur: 5661
Lift Moving: target: 3375 cur: 5661
Lift Moving: target: 3375 cur: 5661
Lift motor not moving. Force it to move
MOTORMoveToTarget> target: 3375 > current: 5661
MOTORMoveToTarget> power: -54 > pos: 3375
Lift Moving: target: 3375 cur: 5661
Lift Moving: target: 3375 cur: 5661
Lift Moving: target: 3375 cur: 5661
Lift Moving: target: 3375 cur: 5661
Lift Moving: target: 3375 cur: 5661
Lift motor not moving. Force it to move
MOTORMoveToTarget> target: 3375 > current: 5661
MOTORMoveToTarget> power: -54 > pos: 3375
Lift Moving: target: 3375 cur: 5661
Lift Moving: target: 3375 cur: 5661
Lift Moving: target: 3375 cur: 5661
Lift Moving: target: 3375 cur: 5661
Lift Moving: target: 3375 cur: 5661
Lift motor not moving. Force it to move
MOTORMoveToTarget> target: 3375 > current: 5661
MOTORMoveToTarget> power: -54 > pos: 3375
Lift Moving: target: 3375 cur: 5661
Lift Moving: target: 3375 cur: 5661
Lift Moving: target: 3375 cur: 5661
Lift Moving: target: 3375 cur: 5661
Lift Moving: target: 3375 cur: 5661
Lift motor not moving. Force it to move
MOTORMoveToTarget> target: 3375 > current: 5661
MOTORMoveToTarget> power: -54 > pos: 3375
Lift Moving: target: 3375 cur: 5661
Lift Moving: target: 3375 cur: 5661
Lift Moving: target: 3375 cur: 5661
Lift Moving: target: 3375 cur: 5661
Lift Moving: target: 3375 cur: 5661
Lift motor not moving. Force it to move
MOTORMoveToTarget> target: 3375 > current: 5661
MOTORMoveToTarget> power: -54 > pos: 3375
Lift Moving: target: 3375 cur: 5661
Lift Moving: target: 3375 cur: 5661
Lift Moving: target: 3375 cur: 5661
Lift Moving: target: 3375 cur: 5661
Lift Moving: target: 3375 cur: 5661
Lift motor not moving. Force it to move
MOTORMoveToTarget> target: 3375 > current: 5661
MOTORMoveToTarget> power: -54 > pos: 3375
Lift Moving: target: 3375 cur: 5661
Lift Moving: target: 3375 cur: 5661
Lift Moving: target: 3375 cur: 5661
Lift Moving: target: 3375 cur: 5661
Lift Moving: target: 3375 cur: 5661
Lift motor not moving. Force it to move
MOTORMoveToTarget> target: 3375 > current: 5661
MOTORMoveToTarget> power: -54 > pos: 3375
Lift Moving: target: 3375 cur: 5661
Lift Moving: target: 3375 cur: 5661
Lift Moving: target: 3375 cur: 5661
Lift Moving: target: 3375 cur: 5661
Lift Moving: target: 3375 cur: 5661
Lift motor not moving. Force it to move
MOTORMoveToTarget> target: 3375 > current: 5661
MOTORMoveToTarget> power: -54 > pos: 3375
Lift Moving: target: 3375 cur: 5661
Lift Moving: target: 3375 cur: 5661
Lift Moving: target: 3375 cur: 5661
Lift Moving: target: 3375 cur: 5661
Lift Moving: target: 3375 cur: 5661
Lift motor not moving. Force it to move
MOTORMoveToTarget> target: 3375 > current: 5661
MOTORMoveToTarget> power: -54 > pos: 3375
Lift Moving: target: 3375 cur: 5661
Lift Moving: target: 3375 cur: 5661
Lift Moving: target: 3375 cur: 5661
Lift Moving: target: 3375 cur: 5661
Lift Moving: target: 3375 cur: 5661
Lift motor not moving. Force it to move
MOTORMoveToTarget> target: 3375 > current: 5661
MOTORMoveToTarget> power: -54 > pos: 3375
Lift Moving: target: 3375 cur: 5661
Lift Moving: target: 3375 cur: 5661
Lift Moving: target: 3375 cur: 5661
Lift Moving: target: 3375 cur: 5661
Lift Moving: target: 3375 cur: 5661
Lift motor not moving. Force it to move
MOTORMoveToTarget> target: 3375 > current: 5661
MOTORMoveToTarget> power: -54 > pos: 3375
Lift Moving: target: 3375 cur: 5661